Time - PXI1Slot5/ai0	Voltage - PXI1Slot5/ai0	Time - PXI1Slot5/ai1	Voltage - PXI1Slot5/ai1	Time - PXI1Slot5/ai2	Voltage - PXI1Slot5/ai2	Time - PXI1Slot5/ai3	Voltage - PXI1Slot5/ai3
0	0.000610352	0	0	0	0.0012207	0	0
4.00E-07	0.000610352	4.00E-07	0.000610352	4.00E-07	0.000610352	4.00E-07	-0.000610352
8.00E-07	0	8.00E-07	0	8.00E-07	0.0012207	8.00E-07	-0.000610352
1.20E-06	0	1.20E-06	0	1.20E-06	0.0012207	1.20E-06	-0.000610352
1.60E-06	0.000610352	1.60E-06	0.000610352	1.60E-06	0.0012207	1.60E-06	0
2.00E-06	0.000610352	2.00E-06	0.000610352	2.00E-06	0.0012207	2.00E-06	0
2.40E-06	0.00183105	2.40E-06	0	2.40E-06	0.0012207	2.40E-06	-0.000610352
2.80E-06	0.000610352	2.80E-06	-0.000610352	2.80E-06	0.0012207	2.80E-06	-0.000610352
3.20E-06	0.000610352	3.20E-06	0.000610352	3.20E-06	0.000610352	3.20E-06	0
3.60E-06	0	3.60E-06	-0.000610352	3.60E-06	0.0012207	3.60E-06	-0.000610352
4.00E-06	0.000610352	4.00E-06	0	4.00E-06	0.000610352	4.00E-06	-0.000610352
4.40E-06	0.000610352	4.40E-06	0.0012207	4.40E-06	0.0012207	4.40E-06	0
4.80E-06	0.0012207	4.80E-06	-0.000610352	4.80E-06	0.000610352	4.80E-06	-0.000610352
5.20E-06	0.000610352	5.20E-06	0	5.20E-06	0.0012207	5.20E-06	0
5.60E-06	0	5.60E-06	-0.000610352	5.60E-06	0.0012207	5.60E-06	0
6.00E-06	0	6.00E-06	-0.000610352	6.00E-06	0.000610352	6.00E-06	0.000610352
6.40E-06	0	6.40E-06	-0.000610352	6.40E-06	0.000610352	6.40E-06	-0.000610352
6.80E-06	0.000610352	6.80E-06	0	6.80E-06	0	6.80E-06	-0.000610352
7.20E-06	0	7.20E-06	0	7.20E-06	0.000610352	7.20E-06	0.000610352
7.60E-06	0.000610352	7.60E-06	0	7.60E-06	0.00183105	7.60E-06	-0.000610352
8.00E-06	0.0012207	8.00E-06	0	8.00E-06	0	8.00E-06	-0.000610352
8.40E-06	0.0012207	8.40E-06	-0.000610352	8.40E-06	0.000610352	8.40E-06	0.000610352
8.80E-06	0.00183105	8.80E-06	0	8.80E-06	0.0012207	8.80E-06	0
9.20E-06	0.000610352	9.20E-06	0	9.20E-06	0	9.20E-06	0
9.60E-06	0	9.60E-06	0.000610352	9.60E-06	0.000610352	9.60E-06	0.000610352
1.00E-05	0.000610352	1.00E-05	0	1.00E-05	0.00183105	1.00E-05	-0.000610352
1.04E-05	0.000610352	1.04E-05	0	1.04E-05	0.00183105	1.04E-05	-0.0012207
1.08E-05	0.000610352	1.08E-05	-0.000610352	1.08E-05	0.000610352	1.08E-05	-0.000610352
1.12E-05	0.000610352	1.12E-05	-0.000610352	1.12E-05	0.0012207	1.12E-05	-0.000610352
1.16E-05	0.00183105	1.16E-05	-0.000610352	1.16E-05	0.000610352	1.16E-05	-0.000610352
1.20E-05	0.000610352	1.20E-05	0	1.20E-05	0.000610352	1.20E-05	-0.000610352
1.24E-05	0.0012207	1.24E-05	0	1.24E-05	0.0012207	1.24E-05	-0.000610352
1.28E-05	0.000610352	1.28E-05	0	1.28E-05	0	1.28E-05	0.000610352
1.32E-05	0.000610352	1.32E-05	0	1.32E-05	0.000610352	1.32E-05	-0.000610352
1.36E-05	0.0012207	1.36E-05	0	1.36E-05	0.0012207	1.36E-05	-0.0012207
1.40E-05	0	1.40E-05	0	1.40E-05	0.000610352	1.40E-05	-0.000610352
1.44E-05	0.000610352	1.44E-05	0	1.44E-05	0.00183105	1.44E-05	0
1.48E-05	0.0012207	1.48E-05	-0.000610352	1.48E-05	0.0012207	1.48E-05	-0.000610352
1.52E-05	0.000610352	1.52E-05	-0.000610352	1.52E-05	0.000610352	1.52E-05	-0.000610352
1.56E-05	0.000610352	1.56E-05	-0.000610352	1.56E-05	0.0012207	1.56E-05	0.000610352
1.60E-05	0	1.60E-05	-0.000610352	1.60E-05	0.000610352	1.60E-05	-0.000610352
1.64E-05	0.000610352	1.64E-05	0	1.64E-05	0.000610352	1.64E-05	0
1.68E-05	0.0012207	1.68E-05	0.000610352	1.68E-05	0.0012207	1.68E-05	0
1.72E-05	0	1.72E-05	-0.000610352	1.72E-05	0.00183105	1.72E-05	0
1.76E-05	0.00610352	1.76E-05	0	1.76E-05	0.00366211	1.76E-05	0
1.80E-05	0.03479	1.80E-05	0.000610352	1.80E-05	0.0012207	1.80E-05	-0.000610352
1.84E-05	0.0775146	1.84E-05	0.000610352	1.84E-05	0.00183105	1.84E-05	-0.000610352
1.88E-05	0.12085	1.88E-05	0.000610352	1.88E-05	0	1.88E-05	-0.000610352
1.92E-05	0.165405	1.92E-05	-0.000610352	1.92E-05	0.0012207	1.92E-05	0.000610352
1.96E-05	0.20874	1.96E-05	0.000610352	1.96E-05	0.0012207	1.96E-05	0
2.00E-05	0.252686	2.00E-05	0.000610352	2.00E-05	0.00427246	2.00E-05	-0.000610352
2.04E-05	0.297241	2.04E-05	0	2.04E-05	0.00305176	2.04E-05	0.000610352
2.08E-05	0.340576	2.08E-05	-0.000610352	2.08E-05	0.00183105	2.08E-05	0
2.12E-05	0.38269	2.12E-05	-0.000610352	2.12E-05	0	2.12E-05	-0.000610352
2.16E-05	0.425415	2.16E-05	0	2.16E-05	-0.0012207	2.16E-05	0
2.20E-05	0.466919	2.20E-05	0.0012207	2.20E-05	-0.00183105	2.20E-05	-0.000610352
2.24E-05	0.509033	2.24E-05	0.000610352	2.24E-05	-0.0012207	2.24E-05	-0.00183105
2.28E-05	0.549316	2.28E-05	-0.000610352	2.28E-05	0	2.28E-05	-0.0012207
2.32E-05	0.591431	2.32E-05	-0.000610352	2.32E-05	0.000610352	2.32E-05	0
2.36E-05	0.632324	2.36E-05	0.000610352	2.36E-05	0.00305176	2.36E-05	0
2.40E-05	0.671997	2.40E-05	0.000610352	2.40E-05	0.00427246	2.40E-05	0
2.44E-05	0.712891	2.44E-05	0.000610352	2.44E-05	0.00427246	2.44E-05	-0.000610352
2.48E-05	0.753174	2.48E-05	0.000610352	2.48E-05	0.00427246	2.48E-05	0.000610352
2.52E-05	0.791626	2.52E-05	0	2.52E-05	0.0012207	2.52E-05	-0.000610352
2.56E-05	0.829468	2.56E-05	0.000610352	2.56E-05	-0.000610352	2.56E-05	-0.000610352
2.60E-05	0.86853	2.60E-05	-0.000610352	2.60E-05	-0.00244141	2.60E-05	-0.000610352
2.64E-05	0.906372	2.64E-05	0	2.64E-05	-0.00244141	2.64E-05	-0.000610352
2.68E-05	0.943604	2.68E-05	0.000610352	2.68E-05	-0.00244141	2.68E-05	0
2.72E-05	0.980835	2.72E-05	0.000610352	2.72E-05	0	2.72E-05	-0.000610352
2.76E-05	1.01807	2.76E-05	0.000610352	2.76E-05	0.00183105	2.76E-05	-0.000610352
2.80E-05	1.05469	2.80E-05	0	2.80E-05	0.00305176	2.80E-05	-0.0012207
2.84E-05	1.09009	2.84E-05	0.000610352	2.84E-05	0.00488281	2.84E-05	-0.000610352
2.88E-05	1.12549	2.88E-05	0.00183105	2.88E-05	0.00427246	2.88E-05	-0.000610352
2.92E-05	1.15967	2.92E-05	0.000610352	2.92E-05	0.00305176	2.92E-05	-0.000610352
2.96E-05	1.19385	2.96E-05	0	2.96E-05	0.0012207	2.96E-05	-0.0012207
3.00E-05	1.22925	3.00E-05	0.000610352	3.00E-05	0	3.00E-05	-0.000610352
3.04E-05	1.2616	3.04E-05	0.000610352	3.04E-05	-0.0012207	3.04E-05	0
3.08E-05	1.29395	3.08E-05	0	3.08E-05	-0.0012207	3.08E-05	-0.000610352
3.12E-05	1.32629	3.12E-05	0.000610352	3.12E-05	-0.00183105	3.12E-05	-0.000610352
3.16E-05	1.35864	3.16E-05	0.000610352	3.16E-05	0	3.16E-05	-0.000610352
3.20E-05	1.39038	3.20E-05	0.000610352	3.20E-05	0.00183105	3.20E-05	0.000610352
3.24E-05	1.42212	3.24E-05	0.000610352	3.24E-05	0.00305176	3.24E-05	0
3.28E-05	1.45264	3.28E-05	0.000610352	3.28E-05	0.00366211	3.28E-05	0
3.32E-05	1.48315	3.32E-05	0	3.32E-05	0.00305176	3.32E-05	0
3.36E-05	1.51245	3.36E-05	0	3.36E-05	0.00305176	3.36E-05	0.000610352
3.40E-05	1.54175	3.40E-05	0	3.40E-05	0.0012207	3.40E-05	0.000610352
3.44E-05	1.56982	3.44E-05	0	3.44E-05	0	3.44E-05	-0.000610352
3.48E-05	1.5979	3.48E-05	0.000610352	3.48E-05	-0.0012207	3.48E-05	-0.000610352
3.52E-05	1.62537	3.52E-05	0.000610352	3.52E-05	-0.0012207	3.52E-05	0
3.56E-05	1.65283	3.56E-05	0.000610352	3.56E-05	0	3.56E-05	0
3.60E-05	1.67847	3.60E-05	0.000610352	3.60E-05	0.000610352	3.60E-05	0
3.64E-05	1.7041	3.64E-05	0.000610352	3.64E-05	0.000610352	3.64E-05	-0.000610352
3.68E-05	1.72913	3.68E-05	-0.000610352	3.68E-05	0.00183105	3.68E-05	-0.000610352
3.72E-05	1.75537	3.72E-05	0.000610352	3.72E-05	0.00183105	3.72E-05	0
3.76E-05	1.77979	3.76E-05	0	3.76E-05	0.00305176	3.76E-05	0.000610352
3.80E-05	1.80298	3.80E-05	0	3.80E-05	0.00183105	3.80E-05	0
3.84E-05	1.82678	3.84E-05	0.000610352	3.84E-05	0.00183105	3.84E-05	0.000610352
3.88E-05	1.84998	3.88E-05	0.000610352	3.88E-05	0.000610352	3.88E-05	0
3.92E-05	1.87195	3.92E-05	0.000610352	3.92E-05	0.000610352	3.92E-05	-0.000610352
3.96E-05	1.89331	3.96E-05	0.000610352	3.96E-05	0	3.96E-05	0.000610352
4.00E-05	1.91528	4.00E-05	0.000610352	4.00E-05	0.000610352	4.00E-05	0
4.04E-05	1.93481	4.04E-05	0.000610352	4.04E-05	0.0012207	4.04E-05	-0.0012207
4.08E-05	1.95496	4.08E-05	0	4.08E-05	0.000610352	4.08E-05	-0.000610352
4.12E-05	1.97388	4.12E-05	0	4.12E-05	0.0012207	4.12E-05	-0.0012207
4.16E-05	1.99219	4.16E-05	-0.000610352	4.16E-05	0.0012207	4.16E-05	-0.000610352
4.20E-05	2.01111	4.20E-05	-0.000610352	4.20E-05	0.00183105	4.20E-05	0
4.24E-05	2.0282	4.24E-05	0.000610352	4.24E-05	0.0012207	4.24E-05	-0.000610352
4.28E-05	2.0459	4.28E-05	0.0012207	4.28E-05	0.0012207	4.28E-05	-0.000610352
4.32E-05	2.06238	4.32E-05	0.000610352	4.32E-05	0.0012207	4.32E-05	-0.0012207
4.36E-05	2.07886	4.36E-05	0.000610352	4.36E-05	0.0012207	4.36E-05	0
4.40E-05	2.09412	4.40E-05	0	4.40E-05	0.000610352	4.40E-05	0
4.44E-05	2.10938	4.44E-05	0.0012207	4.44E-05	0.0012207	4.44E-05	-0.000610352
4.48E-05	2.12402	4.48E-05	0.000610352	4.48E-05	0.0012207	4.48E-05	-0.0012207
4.52E-05	2.13684	4.52E-05	-0.000610352	4.52E-05	0.0012207	4.52E-05	-0.000610352
4.56E-05	2.14966	4.56E-05	0.0012207	4.56E-05	0.0012207	4.56E-05	-0.000610352
4.60E-05	2.16309	4.60E-05	0	4.60E-05	0.0012207	4.60E-05	-0.000610352
4.64E-05	2.17529	4.64E-05	0.0012207	4.64E-05	0.00183105	4.64E-05	0
4.68E-05	2.18567	4.68E-05	0	4.68E-05	0.0012207	4.68E-05	0
4.72E-05	2.19727	4.72E-05	0.000610352	4.72E-05	0.0012207	4.72E-05	-0.000610352
4.76E-05	2.20764	4.76E-05	0.0012207	4.76E-05	0.00183105	4.76E-05	0
4.80E-05	2.2168	4.80E-05	0.000610352	4.80E-05	0.0012207	4.80E-05	-0.000610352
4.84E-05	2.22656	4.84E-05	0.0012207	4.84E-05	0.00183105	4.84E-05	0
4.88E-05	2.23572	4.88E-05	0.000610352	4.88E-05	0.0012207	4.88E-05	0
4.92E-05	2.24426	4.92E-05	0.000610352	4.92E-05	0	4.92E-05	-0.000610352
4.96E-05	2.25098	4.96E-05	0	4.96E-05	0.000610352	4.96E-05	-0.0012207
5.00E-05	2.2583	5.00E-05	0	5.00E-05	0	5.00E-05	0
5.04E-05	2.26501	5.04E-05	0	5.04E-05	0.0012207	5.04E-05	-0.000610352
5.08E-05	2.27112	5.08E-05	0.000610352	5.08E-05	0.00183105	5.08E-05	-0.000610352
5.12E-05	2.276	5.12E-05	0.000610352	5.12E-05	0.000610352	5.12E-05	-0.000610352
5.16E-05	2.28088	5.16E-05	0.000610352	5.16E-05	0.00183105	5.16E-05	-0.000610352
5.20E-05	2.28516	5.20E-05	0.000610352	5.20E-05	0.00183105	5.20E-05	-0.000610352
5.24E-05	2.28943	5.24E-05	0.000610352	5.24E-05	0.00183105	5.24E-05	0
5.28E-05	2.29187	5.28E-05	0	5.28E-05	0.00183105	5.28E-05	0.000610352
5.32E-05	2.29431	5.32E-05	0	5.32E-05	0.000610352	5.32E-05	-0.0012207
5.36E-05	2.29614	5.36E-05	-0.000610352	5.36E-05	0.00183105	5.36E-05	-0.000610352
5.40E-05	2.2998	5.40E-05	0.000610352	5.40E-05	0	5.40E-05	-0.000610352
5.44E-05	2.30103	5.44E-05	0.000610352	5.44E-05	0.0012207	5.44E-05	-0.000610352
5.48E-05	2.30347	5.48E-05	0	5.48E-05	0.000610352	5.48E-05	-0.0012207
5.52E-05	2.3053	5.52E-05	0.000610352	5.52E-05	0.000610352	5.52E-05	-0.000610352
5.56E-05	2.30774	5.56E-05	0	5.56E-05	0.00183105	5.56E-05	-0.000610352
5.60E-05	2.31018	5.60E-05	0	5.60E-05	0.0012207	5.60E-05	-0.00183105
5.64E-05	2.31262	5.64E-05	0	5.64E-05	0.00183105	5.64E-05	-0.000610352
5.68E-05	2.31384	5.68E-05	0.000610352	5.68E-05	0.00183105	5.68E-05	0
5.72E-05	2.31689	5.72E-05	0.000610352	5.72E-05	0.00183105	5.72E-05	-0.000610352
5.76E-05	2.31995	5.76E-05	0.000610352	5.76E-05	0.00183105	5.76E-05	-0.000610352
5.80E-05	2.32178	5.80E-05	0.000610352	5.80E-05	0.0012207	5.80E-05	-0.000610352
5.84E-05	2.32422	5.84E-05	0.000610352	5.84E-05	0.000610352	5.84E-05	-0.000610352
5.88E-05	2.32727	5.88E-05	0	5.88E-05	0.000610352	5.88E-05	0.000610352
5.92E-05	2.3291	5.92E-05	0.000610352	5.92E-05	0.000610352	5.92E-05	-0.000610352
5.96E-05	2.33215	5.96E-05	0.000610352	5.96E-05	0.0012207	5.96E-05	0
6.00E-05	2.33459	6.00E-05	0	6.00E-05	0.00183105	6.00E-05	-0.000610352
6.04E-05	2.33826	6.04E-05	0.000610352	6.04E-05	0.00183105	6.04E-05	0
6.08E-05	2.33948	6.08E-05	0	6.08E-05	0.00183105	6.08E-05	-0.000610352
6.12E-05	2.34253	6.12E-05	-0.000610352	6.12E-05	0.00183105	6.12E-05	0
6.16E-05	2.34558	6.16E-05	0	6.16E-05	0.0012207	6.16E-05	-0.000610352
6.20E-05	2.34802	6.20E-05	-0.000610352	6.20E-05	0.0012207	6.20E-05	-0.000610352
6.24E-05	2.35046	6.24E-05	-0.000610352	6.24E-05	0.0012207	6.24E-05	0.000610352
6.28E-05	2.35413	6.28E-05	0	6.28E-05	0.0012207	6.28E-05	-0.000610352
6.32E-05	2.35596	6.32E-05	0.000610352	6.32E-05	0.000610352	6.32E-05	-0.0012207
6.36E-05	2.35901	6.36E-05	-0.000610352	6.36E-05	0.000610352	6.36E-05	-0.000610352
6.40E-05	2.36267	6.40E-05	0.000610352	6.40E-05	0.00183105	6.40E-05	0.000610352
6.44E-05	2.36389	6.44E-05	0	6.44E-05	0.0012207	6.44E-05	0
6.48E-05	2.36633	6.48E-05	0	6.48E-05	0.0012207	6.48E-05	-0.000610352
6.52E-05	2.36938	6.52E-05	0	6.52E-05	0.0012207	6.52E-05	0
6.56E-05	2.37183	6.56E-05	0	6.56E-05	0.0012207	6.56E-05	0.000610352
6.60E-05	2.37488	6.60E-05	0.000610352	6.60E-05	0.000610352	6.60E-05	0
6.64E-05	2.37732	6.64E-05	0.000610352	6.64E-05	0.000610352	6.64E-05	-0.000610352
6.68E-05	2.37061	6.68E-05	0.000610352	6.68E-05	0.0012207	6.68E-05	0.000610352
6.72E-05	2.35962	6.72E-05	0	6.72E-05	0.000610352	6.72E-05	0.000610352
6.76E-05	2.34985	6.76E-05	0.0012207	6.76E-05	0.00183105	6.76E-05	-0.0012207
6.80E-05	2.34009	6.80E-05	0.000610352	6.80E-05	0.00183105	6.80E-05	0
6.84E-05	2.33032	6.84E-05	0.000610352	6.84E-05	0	6.84E-05	-0.0012207
6.88E-05	2.31995	6.88E-05	0.000610352	6.88E-05	0	6.88E-05	0
6.92E-05	2.3114	6.92E-05	-0.000610352	6.92E-05	0	6.92E-05	-0.000610352
6.96E-05	2.30103	6.96E-05	0	6.96E-05	0.000610352	6.96E-05	0
7.00E-05	2.29187	7.00E-05	-0.000610352	7.00E-05	0.00183105	7.00E-05	-0.000610352
7.04E-05	2.2821	7.04E-05	-0.000610352	7.04E-05	0.00183105	7.04E-05	-0.000610352
7.08E-05	2.27234	7.08E-05	0.000610352	7.08E-05	0.00183105	7.08E-05	-0.000610352
7.12E-05	2.26196	7.12E-05	0.000610352	7.12E-05	0.00183105	7.12E-05	-0.0012207
7.16E-05	2.25098	7.16E-05	0.000610352	7.16E-05	0.00183105	7.16E-05	0
7.20E-05	2.2406	7.20E-05	0	7.20E-05	0.0012207	7.20E-05	0
7.24E-05	2.229	7.24E-05	-0.000610352	7.24E-05	0	7.24E-05	0.000610352
7.28E-05	2.21741	7.28E-05	0	7.28E-05	-0.000610352	7.28E-05	-0.000610352
7.32E-05	2.20703	7.32E-05	0	7.32E-05	0	7.32E-05	0
7.36E-05	2.19543	7.36E-05	0	7.36E-05	0	7.36E-05	0
7.40E-05	2.18445	7.40E-05	0.0012207	7.40E-05	0.000610352	7.40E-05	-0.000610352
7.44E-05	2.17346	7.44E-05	0.000610352	7.44E-05	0.00183105	7.44E-05	-0.000610352
7.48E-05	2.16187	7.48E-05	0	7.48E-05	0.00244141	7.48E-05	0
7.52E-05	2.15027	7.52E-05	0	7.52E-05	0.00183105	7.52E-05	0
7.56E-05	2.13745	7.56E-05	0	7.56E-05	0.00183105	7.56E-05	-0.000610352
7.60E-05	2.12585	7.60E-05	0	7.60E-05	0.00183105	7.60E-05	0
7.64E-05	2.11426	7.64E-05	0.000610352	7.64E-05	0.000610352	7.64E-05	0.000610352
7.68E-05	2.10144	7.68E-05	0.000610352	7.68E-05	0.000610352	7.68E-05	0.000610352
7.72E-05	2.08923	7.72E-05	0.000610352	7.72E-05	0	7.72E-05	-0.000610352
7.76E-05	2.07703	7.76E-05	0	7.76E-05	0.000610352	7.76E-05	-0.000610352
7.80E-05	2.0636	7.80E-05	0.000610352	7.80E-05	-0.000610352	7.80E-05	0
7.84E-05	2.05139	7.84E-05	0	7.84E-05	0.000610352	7.84E-05	-0.000610352
7.88E-05	2.03796	7.88E-05	0	7.88E-05	0.0012207	7.88E-05	0
7.92E-05	2.02637	7.92E-05	0	7.92E-05	0.0012207	7.92E-05	0
7.96E-05	2.01172	7.96E-05	0	7.96E-05	0.0012207	7.96E-05	0
8.00E-05	1.99829	8.00E-05	0.000610352	8.00E-05	0.00183105	8.00E-05	0.0012207
8.04E-05	1.98425	8.04E-05	0.000610352	8.04E-05	0.00183105	8.04E-05	0
8.08E-05	1.97144	8.08E-05	0.000610352	8.08E-05	0.0012207	8.08E-05	-0.000610352
8.12E-05	1.95801	8.12E-05	-0.000610352	8.12E-05	0.000610352	8.12E-05	0
8.16E-05	1.94458	8.16E-05	-0.000610352	8.16E-05	0	8.16E-05	-0.000610352
8.20E-05	1.93054	8.20E-05	0	8.20E-05	0.000610352	8.20E-05	0.000610352
8.24E-05	1.9165	8.24E-05	-0.000610352	8.24E-05	0	8.24E-05	-0.000610352
8.28E-05	1.90308	8.28E-05	-0.000610352	8.28E-05	0.000610352	8.28E-05	0
8.32E-05	1.88904	8.32E-05	0	8.32E-05	0.0012207	8.32E-05	0
8.36E-05	1.875	8.36E-05	0	8.36E-05	0.00183105	8.36E-05	-0.000610352
8.40E-05	1.86035	8.40E-05	0.000610352	8.40E-05	0.0012207	8.40E-05	-0.000610352
8.44E-05	1.84509	8.44E-05	0	8.44E-05	0.000610352	8.44E-05	0
8.48E-05	1.83105	8.48E-05	0	8.48E-05	0.0012207	8.48E-05	0
8.52E-05	1.81519	8.52E-05	0	8.52E-05	0.0012207	8.52E-05	-0.000610352
8.56E-05	1.80054	8.56E-05	0	8.56E-05	0.000610352	8.56E-05	0
8.60E-05	1.78589	8.60E-05	0	8.60E-05	0	8.60E-05	-0.000610352
8.64E-05	1.77124	8.64E-05	0.000610352	8.64E-05	0.000610352	8.64E-05	0
8.68E-05	1.75537	8.68E-05	0.000610352	8.68E-05	0	8.68E-05	-0.000610352
8.72E-05	1.74133	8.72E-05	0	8.72E-05	0.000610352	8.72E-05	-0.000610352
8.76E-05	1.72729	8.76E-05	-0.000610352	8.76E-05	0.0012207	8.76E-05	-0.000610352
8.80E-05	1.72241	8.80E-05	0.000610352	8.80E-05	0.000610352	8.80E-05	0
8.84E-05	1.72363	8.84E-05	-0.000610352	8.84E-05	0.000610352	8.84E-05	-0.000610352
8.88E-05	1.72913	8.88E-05	0	8.88E-05	0.00183105	8.88E-05	-0.000610352
8.92E-05	1.73279	8.92E-05	0.000610352	8.92E-05	0.0012207	8.92E-05	-0.000610352
8.96E-05	1.73767	8.96E-05	0	8.96E-05	0.0012207	8.96E-05	-0.000610352
9.00E-05	1.74316	9.00E-05	0	9.00E-05	0.00244141	9.00E-05	-0.000610352
9.04E-05	1.74683	9.04E-05	0.000610352	9.04E-05	0.00183105	9.04E-05	-0.000610352
9.08E-05	1.75171	9.08E-05	0.000610352	9.08E-05	0.00183105	9.08E-05	0
9.12E-05	1.75598	9.12E-05	-0.000610352	9.12E-05	0.0012207	9.12E-05	0
9.16E-05	1.76025	9.16E-05	0.000610352	9.16E-05	0.000610352	9.16E-05	-0.000610352
9.20E-05	1.76514	9.20E-05	0	9.20E-05	-0.000610352	9.20E-05	-0.000610352
9.24E-05	1.77002	9.24E-05	-0.000610352	9.24E-05	-0.000610352	9.24E-05	0.000610352
9.28E-05	1.77307	9.28E-05	-0.000610352	9.28E-05	0.000610352	9.28E-05	-0.000610352
9.32E-05	1.77734	9.32E-05	-0.000610352	9.32E-05	0.000610352	9.32E-05	0.000610352
9.36E-05	1.78223	9.36E-05	0.000610352	9.36E-05	0.00244141	9.36E-05	-0.000610352
9.40E-05	1.78772	9.40E-05	0.000610352	9.40E-05	0.00244141	9.40E-05	0
9.44E-05	1.79199	9.44E-05	0.000610352	9.44E-05	0.00305176	9.44E-05	-0.000610352
9.48E-05	1.79626	9.48E-05	-0.000610352	9.48E-05	0.00244141	9.48E-05	0
9.52E-05	1.80115	9.52E-05	0	9.52E-05	0.0012207	9.52E-05	-0.000610352
9.56E-05	1.8042	9.56E-05	0.000610352	9.56E-05	0	9.56E-05	0.000610352
9.60E-05	1.80786	9.60E-05	-0.000610352	9.60E-05	0	9.60E-05	0.000610352
9.64E-05	1.81335	9.64E-05	0	9.64E-05	-0.000610352	9.64E-05	-0.000610352
9.68E-05	1.81763	9.68E-05	0.000610352	9.68E-05	-0.000610352	9.68E-05	0
9.72E-05	1.82129	9.72E-05	0	9.72E-05	0.000610352	9.72E-05	-0.000610352
9.76E-05	1.82495	9.76E-05	-0.0012207	9.76E-05	0.000610352	9.76E-05	0
9.80E-05	1.83044	9.80E-05	0.000610352	9.80E-05	0.00183105	9.80E-05	-0.000610352
9.84E-05	1.83472	9.84E-05	0	9.84E-05	0.00305176	9.84E-05	0
9.88E-05	1.83777	9.88E-05	0	9.88E-05	0.00305176	9.88E-05	0.000610352
9.92E-05	1.84204	9.92E-05	0.000610352	9.92E-05	0.00244141	9.92E-05	-0.000610352
9.96E-05	1.84753	9.96E-05	0.000610352	9.96E-05	0.0012207	9.96E-05	-0.000610352
1.00E-04	1.8512	1.00E-04	0.000610352	1.00E-04	0.0012207	1.00E-04	-0.000610352
0.0001	1.85425	0.0001	0.000610352	0.0001	0	0.0001	0.000610352
0.000101	1.85852	0.000101	0	0.000101	-0.000610352	0.000101	-0.0012207
0.000101	1.8634	0.000101	-0.000610352	0.000101	-0.000610352	0.000101	0
0.000102	1.86707	0.000102	0.000610352	0.000102	0.000610352	0.000102	0.000610352
0.000102	1.87073	0.000102	0	0.000102	0.0012207	0.000102	-0.000610352
0.000102	1.87439	0.000102	0.000610352	0.000102	0.0012207	0.000102	0
0.000103	1.87866	0.000103	0.0012207	0.000103	0.00305176	0.000103	0
0.000103	1.88293	0.000103	-0.000610352	0.000103	0.00244141	0.000103	-0.0012207
0.000104	1.88721	0.000104	-0.000610352	0.000104	0.00244141	0.000104	0.000610352
0.000104	1.89026	0.000104	0	0.000104	0.00183105	0.000104	0
0.000104	1.89453	0.000104	0.000610352	0.000104	0.0012207	0.000104	0
0.000105	1.8988	0.000105	-0.000610352	0.000105	-0.000610352	0.000105	0.000610352
0.000105	1.90186	0.000105	-0.000610352	0.000105	0	0.000105	-0.000610352
0.000106	1.90613	0.000106	0.000610352	0.000106	0.000610352	0.000106	-0.000610352
0.000106	1.9104	0.000106	0.000610352	0.000106	0.000610352	0.000106	0.000610352
0.000106	1.91406	0.000106	0.000610352	0.000106	0	0.000106	0
0.000107	1.91772	0.000107	0	0.000107	0.00244141	0.000107	0
0.000107	1.92139	0.000107	-0.000610352	0.000107	0.00183105	0.000107	0.000610352
0.000108	1.92566	0.000108	0	0.000108	0.00183105	0.000108	0.000610352
0.000108	1.92871	0.000108	0.000610352	0.000108	0.00183105	0.000108	-0.000610352
0.000108	1.93298	0.000108	-0.000610352	0.000108	0.0012207	0.000108	-0.0012207
0.000109	1.93665	0.000109	0.000610352	0.000109	0.0012207	0.000109	-0.000610352
0.000109	1.9397	0.000109	0.000610352	0.000109	0.0012207	0.000109	-0.000610352
0.00011	1.94458	0.00011	-0.000610352	0.00011	0.00183105	0.00011	-0.000610352
0.00011	1.94763	0.00011	0.000610352	0.00011	0.000610352	0.00011	-0.000610352
0.00011	1.9519	0.00011	0.000610352	0.00011	0.0012207	0.00011	0.000610352
0.000111	1.95557	0.000111	-0.000610352	0.000111	0.0012207	0.000111	0
0.000111	1.95923	0.000111	0	0.000111	0.0012207	0.000111	-0.000610352
0.000112	1.96289	0.000112	0.000610352	0.000112	0.0012207	0.000112	-0.000610352
0.000112	1.96655	0.000112	0	0.000112	0.0012207	0.000112	0
0.000112	1.97083	0.000112	0.000610352	0.000112	0.000610352	0.000112	0
0.000113	1.9751	0.000113	0.000610352	0.000113	0.0012207	0.000113	-0.000610352
0.000113	1.97754	0.000113	0.000610352	0.000113	0.0012207	0.000113	-0.000610352
0.000114	1.97998	0.000114	0.000610352	0.000114	0	0.000114	0
0.000114	1.98425	0.000114	0	0.000114	0.0012207	0.000114	0
0.000114	1.98792	0.000114	-0.000610352	0.000114	0	0.000114	0
0.000115	1.99158	0.000115	0.000610352	0.000115	0.000610352	0.000115	0
0.000115	1.99524	0.000115	0.000610352	0.000115	0.000610352	0.000115	-0.000610352
0.000116	1.99829	0.000116	0.000610352	0.000116	0.00183105	0.000116	0.000610352
0.000116	2.00195	0.000116	0.000610352	0.000116	0.00183105	0.000116	-0.0012207
0.000116	2.00562	0.000116	-0.000610352	0.000116	0.0012207	0.000116	-0.000610352
0.000117	2.00928	0.000117	0.000610352	0.000117	0.000610352	0.000117	0
0.000117	2.01233	0.000117	-0.000610352	0.000117	0.000610352	0.000117	-0.000610352
0.000118	2.01599	0.000118	0.000610352	0.000118	0.00183105	0.000118	-0.000610352
0.000118	2.01965	0.000118	0.0012207	0.000118	0.0012207	0.000118	0
0.000118	2.02271	0.000118	0.0012207	0.000118	0.000610352	0.000118	0
0.000119	2.02637	0.000119	0	0.000119	0.000610352	0.000119	-0.000610352
0.000119	2.03064	0.000119	0.000610352	0.000119	0	0.000119	0.000610352
0.00012	2.03369	0.00012	0	0.00012	0.000610352	0.00012	0
0.00012	2.03674	0.00012	0	0.00012	0.0012207	0.00012	-0.000610352
0.00012	2.04041	0.00012	-0.000610352	0.00012	0.0012207	0.00012	-0.0012207
0.000121	2.04407	0.000121	0.000610352	0.000121	0.00183105	0.000121	-0.0012207
0.000121	2.04712	0.000121	-0.000610352	0.000121	0.0012207	0.000121	-0.000610352
0.000122	2.05078	0.000122	0	0.000122	0.00183105	0.000122	0
0.000122	2.05444	0.000122	0	0.000122	0.000610352	0.000122	-0.0012207
0.000122	2.05811	0.000122	0.000610352	0.000122	0.0012207	0.000122	0.000610352
0.000123	2.06055	0.000123	0.000610352	0.000123	0.00183105	0.000123	0
0.000123	2.0636	0.000123	0.000610352	0.000123	0.00183105	0.000123	0.000610352
0.000124	2.06726	0.000124	0	0.000124	0.0012207	0.000124	0
0.000124	2.0697	0.000124	-0.000610352	0.000124	0.0012207	0.000124	0.000610352
0.000124	2.07397	0.000124	0.000610352	0.000124	0.0012207	0.000124	-0.000610352
0.000125	2.07703	0.000125	0.000610352	0.000125	0	0.000125	-0.000610352
0.000125	2.08008	0.000125	0	0.000125	0.000610352	0.000125	-0.000610352
0.000126	2.08374	0.000126	0	0.000126	0.000610352	0.000126	0
0.000126	2.08618	0.000126	0.000610352	0.000126	0.0012207	0.000126	-0.000610352
0.000126	2.09045	0.000126	0.000610352	0.000126	0.00183105	0.000126	-0.000610352
0.000127	2.09351	0.000127	-0.000610352	0.000127	0.0012207	0.000127	0
0.000127	2.09717	0.000127	0.000610352	0.000127	0.00183105	0.000127	-0.000610352
0.000128	2.10022	0.000128	0.000610352	0.000128	0.00183105	0.000128	-0.000610352
0.000128	2.10327	0.000128	0	0.000128	0.0012207	0.000128	0.000610352
0.000128	2.10632	0.000128	0	0.000128	0.0012207	0.000128	0.000610352
0.000129	2.10876	0.000129	0	0.000129	0.000610352	0.000129	0.000610352
0.000129	2.11243	0.000129	0	0.000129	0.000610352	0.000129	-0.000610352
0.00013	2.11548	0.00013	0	0.00013	0.0012207	0.00013	0.000610352
0.00013	2.11914	0.00013	0	0.00013	0.000610352	0.00013	-0.000610352
0.00013	2.12219	0.00013	0.000610352	0.00013	0.00183105	0.00013	-0.000610352
0.000131	2.12402	0.000131	0	0.000131	0.0012207	0.000131	-0.000610352
0.000131	2.1283	0.000131	-0.000610352	0.000131	0.000610352	0.000131	0
0.000132	2.13196	0.000132	0.000610352	0.000132	0.0012207	0.000132	-0.000610352
0.000132	2.1344	0.000132	0	0.000132	0.00183105	0.000132	-0.0012207
0.000132	2.13745	0.000132	0.000610352	0.000132	0.0012207	0.000132	0
0.000133	2.13928	0.000133	0	0.000133	0.000610352	0.000133	0.000610352
0.000133	2.14355	0.000133	-0.000610352	0.000133	0.000610352	0.000133	0
0.000134	2.14661	0.000134	0.000610352	0.000134	0.000610352	0.000134	0.000610352
0.000134	2.14905	0.000134	0	0.000134	0.0012207	0.000134	-0.000610352
0.000134	2.15271	0.000134	0	0.000134	0.000610352	0.000134	0
0.000135	2.15637	0.000135	0	0.000135	0.000610352	0.000135	-0.000610352
0.000135	2.15881	0.000135	-0.000610352	0.000135	0.0012207	0.000135	0
0.000136	2.16064	0.000136	0.000610352	0.000136	0.00183105	0.000136	0.000610352
0.000136	2.16431	0.000136	0.000610352	0.000136	0.0012207	0.000136	0
0.000136	2.16797	0.000136	0.000610352	0.000136	0.0012207	0.000136	-0.0012207
0.000137	2.17102	0.000137	-0.000610352	0.000137	0.000610352	0.000137	0
0.000137	2.17285	0.000137	0.000610352	0.000137	0.0012207	0.000137	-0.000610352
0.000138	2.17712	0.000138	0	0.000138	0.0012207	0.000138	-0.000610352
0.000138	2.18018	0.000138	0	0.000138	0.0012207	0.000138	-0.000610352
0.000138	2.18262	0.000138	0	0.000138	0.0012207	0.000138	-0.000610352
0.000139	2.18567	0.000139	0.0012207	0.000139	0.00183105	0.000139	0
0.000139	2.18811	0.000139	-0.000610352	0.000139	0.0012207	0.000139	0
0.00014	2.19177	0.00014	0.000610352	0.00014	0.00183105	0.00014	-0.000610352
0.00014	2.19543	0.00014	-0.000610352	0.00014	0.000610352	0.00014	-0.000610352
0.00014	2.19788	0.00014	0	0.00014	0.00183105	0.00014	0.000610352
0.000141	2.1991	0.000141	0.000610352	0.000141	0.0012207	0.000141	-0.000610352
0.000141	2.20276	0.000141	0	0.000141	0.00183105	0.000141	0.000610352
0.000142	2.20642	0.000142	0.000610352	0.000142	0.00183105	0.000142	0.000610352
0.000142	2.20886	0.000142	0.000610352	0.000142	0.00183105	0.000142	-0.0012207
0.000142	2.21191	0.000142	0.000610352	0.000142	0.0012207	0.000142	-0.000610352
0.000143	2.21375	0.000143	-0.000610352	0.000143	0.000610352	0.000143	0
0.000143	2.2168	0.000143	0.000610352	0.000143	0.0012207	0.000143	-0.000610352
0.000144	2.21924	0.000144	0.000610352	0.000144	0.0012207	0.000144	-0.000610352
0.000144	2.2229	0.000144	0	0.000144	0.0012207	0.000144	0
0.000144	2.22595	0.000144	0.000610352	0.000144	0.0012207	0.000144	0
0.000145	2.22839	0.000145	0.000610352	0.000145	0.0012207	0.000145	-0.000610352
0.000145	2.22961	0.000145	0.000610352	0.000145	0.0012207	0.000145	-0.000610352
0.000146	2.23389	0.000146	0	0.000146	0.000610352	0.000146	0
0.000146	2.23511	0.000146	0.0012207	0.000146	0.000610352	0.000146	-0.000610352
0.000146	2.23877	0.000146	0	0.000146	0.0012207	0.000146	-0.000610352
0.000147	2.24182	0.000147	0.000610352	0.000147	0.00183105	0.000147	-0.000610352
0.000147	2.24426	0.000147	0	0.000147	0.0012207	0.000147	-0.000610352
0.000148	2.2467	0.000148	0.00183105	0.000148	0.0012207	0.000148	0.000610352
0.000148	2.24976	0.000148	0.000610352	0.000148	0.000610352	0.000148	-0.000610352
0.000148	2.25281	0.000148	-0.000610352	0.000148	0.000610352	0.000148	-0.000610352
0.000149	2.25525	0.000149	-0.000610352	0.000149	0.0012207	0.000149	0
0.000149	2.25769	0.000149	0	0.000149	0.0012207	0.000149	-0.0012207
0.00015	2.26013	0.00015	-0.000610352	0.00015	0.0012207	0.00015	-0.000610352
0.00015	2.26318	0.00015	-0.000610352	0.00015	0.00183105	0.00015	-0.000610352
0.00015	2.26563	0.00015	0.0012207	0.00015	0.000610352	0.00015	-0.000610352
0.000151	2.26807	0.000151	0	0.000151	0.00183105	0.000151	-0.000610352
0.000151	2.27173	0.000151	0	0.000151	0.00183105	0.000151	0
0.000152	2.27356	0.000152	0	0.000152	0.0012207	0.000152	0
0.000152	2.276	0.000152	0.000610352	0.000152	0.0012207	0.000152	0.000610352
0.000152	2.27783	0.000152	0.000610352	0.000152	0.0012207	0.000152	-0.0012207
0.000153	2.28149	0.000153	-0.000610352	0.000153	0.0012207	0.000153	-0.000610352
0.000153	2.28333	0.000153	0	0.000153	0.00183105	0.000153	-0.000610352
0.000154	2.28638	0.000154	0	0.000154	0.000610352	0.000154	0.000610352
0.000154	2.29004	0.000154	0.0012207	0.000154	0.0012207	0.000154	0.000610352
0.000154	2.29187	0.000154	0.000610352	0.000154	0.00183105	0.000154	0
0.000155	2.2937	0.000155	0.000610352	0.000155	0.0012207	0.000155	-0.000610352
0.000155	2.29736	0.000155	-0.000610352	0.000155	0.000610352	0.000155	-0.000610352
0.000156	2.29919	0.000156	0	0.000156	0.0012207	0.000156	-0.000610352
0.000156	2.30103	0.000156	0.000610352	0.000156	0.0012207	0.000156	0
0.000156	2.30164	0.000156	0	0.000156	0.00183105	0.000156	-0.000610352
0.000157	2.24548	0.000157	0	0.000157	0.00366211	0.000157	0.000610352
0.000157	2.0929	0.000157	-0.000610352	0.000157	0.00854492	0.000157	-0.000610352
0.000158	1.90857	0.000158	0	0.000158	0.00610352	0.000158	-0.000610352
0.000158	1.71997	0.000158	0	0.000158	0.00305176	0.000158	0
0.000158	1.53076	0.000158	0.000610352	0.000158	-0.00366211	0.000158	0
0.000159	1.34094	0.000159	-0.000610352	0.000159	-0.00732422	0.000159	-0.0012207
0.000159	1.15417	0.000159	0	0.000159	-0.010376	0.000159	-0.0012207
0.00016	0.969849	0.00016	-0.0012207	0.00016	-0.00793457	0.00016	-0.000610352
0.00016	0.785522	0.00016	-0.00183105	0.00016	-0.00244141	0.00016	-0.000610352
0.00016	0.603027	0.00016	-0.0012207	0.00016	0.00610352	0.00016	0
0.000161	0.421143	0.000161	-0.000610352	0.000161	0.012207	0.000161	0.000610352
0.000161	0.241699	0.000161	-0.000610352	0.000161	0.0140381	0.000161	0.00244141
0.000162	0.0610352	0.000162	-0.000610352	0.000162	0.0115967	0.000162	0.00183105
0.000162	-0.117798	0.000162	-0.0012207	0.000162	0.00427246	0.000162	0.000610352
0.000162	-0.296631	0.000162	-0.000610352	0.000162	-0.00366211	0.000162	0
0.000163	-0.474854	0.000163	-0.0012207	0.000163	-0.0115967	0.000163	-0.000610352
0.000163	-0.653076	0.000163	-0.0012207	0.000163	-0.0152588	0.000163	-0.00183105
0.000164	-0.828857	0.000164	-0.0012207	0.000164	-0.0140381	0.000164	-0.0012207
0.000164	-1.00342	0.000164	-0.00183105	0.000164	-0.00793457	0.000164	-0.0012207
0.000164	-1.17493	0.000164	-0.000610352	0.000164	0.0012207	0.000164	0.000610352
0.000165	-1.34644	0.000165	-0.0012207	0.000165	0.00854492	0.000165	0.000610352
0.000165	-1.51489	0.000165	-0.00183105	0.000165	0.0152588	0.000165	0.00183105
0.000166	-1.68335	0.000166	-0.00183105	0.000166	0.0158691	0.000166	0.00183105
0.000166	-1.84937	0.000166	-0.0012207	0.000166	0.0115967	0.000166	0.00183105
0.000166	-2.01172	0.000166	-0.0012207	0.000166	-0.0012207	0.000166	0.000610352
0.000167	-2.10938	0.000167	0.000610352	0.000167	-0.0146484	0.000167	-0.00183105
0.000167	-2.12341	0.000167	-0.000610352	0.000167	-0.0213623	0.000167	-0.00183105
0.000168	-2.11487	0.000168	-0.0012207	0.000168	-0.0219727	0.000168	-0.0012207
0.000168	-2.10632	0.000168	-0.00183105	0.000168	-0.0128174	0.000168	-0.00183105
0.000168	-2.09534	0.000168	-0.00183105	0.000168	-0.00244141	0.000168	-0.00183105
0.000169	-2.08435	0.000169	-0.00183105	0.000169	0.0115967	0.000169	0.000610352
0.000169	-2.07275	0.000169	-0.00183105	0.000169	0.0177002	0.000169	0.00183105
0.00017	-2.06421	0.00017	-0.000610352	0.00017	0.0189209	0.00017	0.0012207
0.00017	-2.05505	0.00017	0	0.00017	0.0134277	0.00017	0.00183105
0.00017	-2.04651	0.00017	0.000610352	0.00017	0.00305176	0.00017	0.0012207
0.000171	-2.04041	0.000171	-0.000610352	0.000171	-0.00854492	0.000171	-0.000610352
0.000171	-2.03369	0.000171	-0.000610352	0.000171	-0.0170898	0.000171	-0.0012207
0.000172	-2.0282	0.000172	-0.000610352	0.000172	-0.0183105	0.000172	-0.00244141
0.000172	-2.01904	0.000172	-0.000610352	0.000172	-0.0128174	0.000172	-0.00183105
0.000172	-2.01111	0.000172	0	0.000172	-0.00366211	0.000172	-0.000610352
0.000173	-2.00317	0.000173	-0.0012207	0.000173	0.00793457	0.000173	0.000610352
0.000173	-1.99402	0.000173	-0.000610352	0.000173	0.0152588	0.000173	0.00183105
0.000174	-1.98547	0.000174	0	0.000174	0.0177002	0.000174	0.000610352
0.000174	-1.97876	0.000174	0	0.000174	0.0152588	0.000174	0.0012207
0.000174	-1.97205	0.000174	-0.0012207	0.000174	0.00671387	0.000174	0.00183105
0.000175	-1.96655	0.000175	-0.000610352	0.000175	-0.00427246	0.000175	0
0.000175	-1.96106	0.000175	0.000610352	0.000175	-0.012207	0.000175	-0.000610352
0.000176	-1.95435	0.000176	0	0.000176	-0.0164795	0.000176	-0.0012207
0.000176	-1.94824	0.000176	-0.000610352	0.000176	-0.0134277	0.000176	-0.0012207
0.000176	-1.94092	0.000176	-0.0012207	0.000176	-0.00732422	0.000176	-0.00183105
0.000177	-1.93298	0.000177	-0.00183105	0.000177	0.00244141	0.000177	0
0.000177	-1.92627	0.000177	-0.000610352	0.000177	0.010376	0.000177	0
0.000178	-1.91895	0.000178	-0.000610352	0.000178	0.0146484	0.000178	0.000610352
0.000178	-1.91345	0.000178	0	0.000178	0.0140381	0.000178	0.0012207
0.000178	-1.90735	0.000178	0.000610352	0.000178	0.00854492	0.000178	0.0012207
0.000179	-1.90125	0.000179	0	0.000179	0.0012207	0.000179	0.0012207
0.000179	-1.89453	0.000179	0	0.000179	-0.00549316	0.000179	-0.000610352
0.00018	-1.88965	0.00018	-0.000610352	0.00018	-0.010376	0.00018	-0.000610352
0.00018	-1.88416	0.00018	-0.000610352	0.00018	-0.0109863	0.00018	-0.0012207
0.00018	-1.87805	0.00018	-0.000610352	0.00018	-0.00732422	0.00018	-0.00183105
0.000181	-1.87073	0.000181	-0.000610352	0.000181	-0.00244141	0.000181	-0.000610352
0.000181	-1.86462	0.000181	0	0.000181	0.00427246	0.000181	0
0.000182	-1.85913	0.000182	-0.000610352	0.000182	0.00854492	0.000182	0
0.000182	-1.85303	0.000182	0.000610352	0.000182	0.00915527	0.000182	0
0.000182	-1.84753	0.000182	0.000610352	0.000182	0.00732422	0.000182	0
0.000183	-1.84143	0.000183	-0.000610352	0.000183	0.00427246	0.000183	0.000610352
0.000183	-1.83716	0.000183	0	0.000183	-0.0012207	0.000183	0.000610352
0.000184	-1.83167	0.000184	-0.000610352	0.000184	-0.00427246	0.000184	0.000610352
0.000184	-1.82617	0.000184	0	0.000184	-0.00671387	0.000184	-0.000610352
0.000184	-1.82007	0.000184	-0.000610352	0.000184	-0.00488281	0.000184	-0.000610352
0.000185	-1.81396	0.000185	-0.000610352	0.000185	-0.00183105	0.000185	0.000610352
0.000185	-1.80847	0.000185	-0.0012207	0.000185	0.000610352	0.000185	-0.000610352
0.000186	-1.80298	0.000186	0	0.000186	0.00305176	0.000186	0
0.000186	-1.79626	0.000186	0.000610352	0.000186	0.00427246	0.000186	0.000610352
0.000186	-1.79138	0.000186	0.000610352	0.000186	0.00427246	0.000186	0.000610352
0.000187	-1.78711	0.000187	-0.000610352	0.000187	0.00244141	0.000187	0
0.000187	-1.78162	0.000187	-0.000610352	0.000187	0	0.000187	0
0.000188	-1.77734	0.000188	-0.000610352	0.000188	-0.000610352	0.000188	0
0.000188	-1.77124	0.000188	-0.000610352	0.000188	-0.00183105	0.000188	0
0.000188	-1.76636	0.000188	-0.0012207	0.000188	-0.00244141	0.000188	-0.000610352
0.000189	-1.76086	0.000189	0	0.000189	0	0.000189	0
0.000189	-1.75537	0.000189	0.0012207	0.000189	0.00183105	0.000189	0
0.00019	-1.75049	0.00019	-0.000610352	0.00019	0.00183105	0.00019	0.000610352
0.00019	-1.74438	0.00019	0.000610352	0.00019	0.00244141	0.00019	0
0.00019	-1.7395	0.00019	-0.000610352	0.00019	0.0012207	0.00019	-0.000610352
0.000191	-1.73523	0.000191	-0.000610352	0.000191	0.000610352	0.000191	-0.000610352
0.000191	-1.73157	0.000191	0	0.000191	0	0.000191	0
0.000192	-1.72546	0.000192	-0.000610352	0.000192	-0.0012207	0.000192	0.000610352
0.000192	-1.72119	0.000192	0.0012207	0.000192	0	0.000192	0
0.000192	-1.71631	0.000192	0	0.000192	0	0.000192	0
0.000193	-1.71143	0.000193	0.000610352	0.000193	0.0012207	0.000193	0
0.000193	-1.70532	0.000193	-0.000610352	0.000193	0.0012207	0.000193	0.000610352
0.000194	-1.70105	0.000194	-0.0012207	0.000194	0.00183105	0.000194	0
0.000194	-1.69556	0.000194	-0.000610352	0.000194	0.00183105	0.000194	0.000610352
0.000194	-1.69128	0.000194	0	0.000194	0.0012207	0.000194	0
0.000195	-1.68701	0.000195	0.000610352	0.000195	0	0.000195	-0.000610352
0.000195	-1.68213	0.000195	-0.0012207	0.000195	-0.0012207	0.000195	-0.000610352
0.000196	-1.67786	0.000196	-0.000610352	0.000196	-0.0012207	0.000196	-0.000610352
0.000196	-1.67236	0.000196	-0.000610352	0.000196	-0.000610352	0.000196	0
0.000196	-1.66748	0.000196	-0.000610352	0.000196	0.000610352	0.000196	-0.000610352
0.000197	-1.6626	0.000197	-0.000610352	0.000197	0.00244141	0.000197	-0.000610352
0.000197	-1.65833	0.000197	-0.000610352	0.000197	0.00244141	0.000197	-0.000610352
0.000198	-1.65405	0.000198	0	0.000198	0.00305176	0.000198	0.000610352
0.000198	-1.64856	0.000198	-0.000610352	0.000198	0.00305176	0.000198	0
0.000198	-1.64429	0.000198	0	0.000198	0.000610352	0.000198	-0.000610352
0.000199	-1.6394	0.000199	-0.000610352	0.000199	0	0.000199	0
0.000199	-1.63574	0.000199	-0.000610352	0.000199	-0.0012207	0.000199	-0.000610352
0.0002	-1.63147	0.0002	-0.000610352	0.0002	-0.00183105	0.0002	0
0.0002	-1.62598	0.0002	-0.000610352	0.0002	-0.000610352	0.0002	0.000610352
0.0002	-1.62231	0.0002	0.000610352	0.0002	0	0.0002	-0.000610352
0.000201	-1.61804	0.000201	0	0.000201	0.0012207	0.000201	0
0.000201	-1.61377	0.000201	-0.000610352	0.000201	0.00305176	0.000201	-0.000610352
0.000202	-1.60828	0.000202	-0.0012207	0.000202	0.00305176	0.000202	0
0.000202	-1.604	0.000202	0	0.000202	0.00244141	0.000202	0
0.000202	-1.60034	0.000202	0	0.000202	0.00244141	0.000202	0
0.000203	-1.59668	0.000203	0.000610352	0.000203	0	0.000203	0
0.000203	-1.5918	0.000203	0.000610352	0.000203	0	0.000203	-0.000610352
0.000204	-1.58752	0.000204	0	0.000204	-0.00183105	0.000204	-0.000610352
0.000204	-1.58386	0.000204	0	0.000204	-0.00183105	0.000204	0.000610352
0.000204	-1.57959	0.000204	-0.000610352	0.000204	-0.000610352	0.000204	0.000610352
0.000205	-1.5741	0.000205	0.000610352	0.000205	0	0.000205	0
0.000205	-1.57043	0.000205	-0.000610352	0.000205	0.00183105	0.000205	-0.000610352
0.000206	-1.56616	0.000206	0.000610352	0.000206	0.00244141	0.000206	-0.000610352
0.000206	-1.56189	0.000206	-0.000610352	0.000206	0.00183105	0.000206	0
0.000206	-1.55762	0.000206	0	0.000206	0.00183105	0.000206	0
0.000207	-1.55396	0.000207	0	0.000207	0.0012207	0.000207	-0.000610352
0.000207	-1.54846	0.000207	0	0.000207	0.000610352	0.000207	-0.000610352
0.000208	-1.54541	0.000208	-0.000610352	0.000208	0	0.000208	0
0.000208	-1.54114	0.000208	0	0.000208	-0.0012207	0.000208	0
0.000208	-1.53809	0.000208	-0.000610352	0.000208	-0.0012207	0.000208	0.000610352
0.000209	-1.5332	0.000209	-0.000610352	0.000209	-0.000610352	0.000209	-0.000610352
0.000209	-1.52832	0.000209	0	0.000209	0	0.000209	0
0.00021	-1.52466	0.00021	0	0.00021	0.0012207	0.00021	0
0.00021	-1.51978	0.00021	0	0.00021	0.0012207	0.00021	0
0.00021	-1.51733	0.00021	0	0.00021	0.00183105	0.00021	0.000610352
0.000211	-1.51245	0.000211	-0.000610352	0.000211	0.00183105	0.000211	-0.000610352
0.000211	-1.50879	0.000211	-0.000610352	0.000211	0	0.000211	-0.000610352
0.000212	-1.50452	0.000212	0.000610352	0.000212	0.000610352	0.000212	0
0.000212	-1.50024	0.000212	0	0.000212	0	0.000212	0
0.000212	-1.49719	0.000212	-0.000610352	0.000212	0	0.000212	0
0.000213	-1.49292	0.000213	0	0.000213	0	0.000213	0
0.000213	-1.48926	0.000213	-0.000610352	0.000213	0.000610352	0.000213	0.000610352
0.000214	-1.48499	0.000214	0	0.000214	0.0012207	0.000214	-0.000610352
0.000214	-1.48132	0.000214	-0.000610352	0.000214	0.00183105	0.000214	0.000610352
0.000214	-1.47705	0.000214	0	0.000214	0.000610352	0.000214	0
0.000215	-1.47278	0.000215	0	0.000215	0.0012207	0.000215	0
0.000215	-1.46973	0.000215	-0.000610352	0.000215	0	0.000215	-0.0012207
0.000216	-1.46606	0.000216	0.000610352	0.000216	0.0012207	0.000216	0
0.000216	-1.4624	0.000216	-0.000610352	0.000216	0.0012207	0.000216	0
0.000216	-1.45874	0.000216	0	0.000216	0.0012207	0.000216	0.000610352
0.000217	-1.45447	0.000217	0	0.000217	0.000610352	0.000217	0
0.000217	-1.4502	0.000217	-0.000610352	0.000217	0.000610352	0.000217	0.000610352
0.000218	-1.44592	0.000218	-0.000610352	0.000218	0	0.000218	0.000610352
0.000218	-1.44287	0.000218	0	0.000218	0.000610352	0.000218	0.000610352
0.000218	-1.43921	0.000218	0	0.000218	0.000610352	0.000218	-0.000610352
0.000219	-1.43555	0.000219	0	0.000219	0.000610352	0.000219	-0.000610352
0.000219	-1.4325	0.000219	0	0.000219	0	0.000219	0.000610352
0.00022	-1.42822	0.00022	0	0.00022	0.0012207	0.00022	0
0.00022	-1.42456	0.00022	0.000610352	0.00022	0	0.00022	0
0.00022	-1.42029	0.00022	0.000610352	0.00022	0.000610352	0.00022	0.000610352
0.000221	-1.41724	0.000221	-0.000610352	0.000221	0.00183105	0.000221	-0.000610352
0.000221	-1.41357	0.000221	0	0.000221	0.000610352	0.000221	0.000610352
0.000222	-1.4093	0.000222	-0.000610352	0.000222	0.000610352	0.000222	0
0.000222	-1.40564	0.000222	-0.000610352	0.000222	0	0.000222	-0.000610352
0.000222	-1.40259	0.000222	-0.000610352	0.000222	0	0.000222	0
0.000223	-1.39893	0.000223	0.000610352	0.000223	0.000610352	0.000223	-0.000610352
0.000223	-1.39465	0.000223	0.000610352	0.000223	0	0.000223	-0.000610352
0.000224	-1.39099	0.000224	0	0.000224	0.000610352	0.000224	-0.000610352
0.000224	-1.38855	0.000224	0	0.000224	0.000610352	0.000224	-0.0012207
0.000224	-1.38428	0.000224	0	0.000224	0.000610352	0.000224	-0.000610352
0.000225	-1.38062	0.000225	0	0.000225	0.0012207	0.000225	-0.000610352
0.000225	-1.37756	0.000225	0.000610352	0.000225	0.000610352	0.000225	-0.000610352
0.000226	-1.3739	0.000226	0	0.000226	0.0012207	0.000226	-0.000610352
0.000226	-1.37085	0.000226	0	0.000226	0.0012207	0.000226	0
0.000226	-1.36597	0.000226	0	0.000226	0.0012207	0.000226	-0.000610352
0.000227	-1.36292	0.000227	0	0.000227	0	0.000227	-0.000610352
0.000227	-1.35925	0.000227	0	0.000227	0	0.000227	0
0.000228	-1.3562	0.000228	0	0.000228	0.0012207	0.000228	-0.000610352
0.000228	-1.35315	0.000228	-0.000610352	0.000228	0	0.000228	-0.000610352
0.000228	-1.34949	0.000228	0	0.000228	0.000610352	0.000228	-0.000610352
0.000229	-1.34521	0.000229	0	0.000229	0.000610352	0.000229	0
0.000229	-1.34216	0.000229	-0.000610352	0.000229	0.000610352	0.000229	0.000610352
0.00023	-1.3385	0.00023	0	0.00023	0.0012207	0.00023	0.000610352
0.00023	-1.33545	0.00023	-0.000610352	0.00023	0.000610352	0.00023	0
0.00023	-1.33179	0.00023	0	0.00023	0.0012207	0.00023	0.000610352
0.000231	-1.32813	0.000231	0.000610352	0.000231	0.00183105	0.000231	0
0.000231	-1.32446	0.000231	-0.000610352	0.000231	0.0012207	0.000231	-0.000610352
0.000232	-1.32141	0.000232	0.000610352	0.000232	0.000610352	0.000232	0
0.000232	-1.31775	0.000232	0	0.000232	0.000610352	0.000232	0
0.000232	-1.31531	0.000232	0	0.000232	0.0012207	0.000232	0
0.000233	-1.31165	0.000233	0	0.000233	0.000610352	0.000233	0.000610352
0.000233	-1.30859	0.000233	0	0.000233	0	0.000233	0
0.000234	-1.30493	0.000234	0.000610352	0.000234	0	0.000234	0
0.000234	-1.30188	0.000234	-0.000610352	0.000234	0.000610352	0.000234	-0.000610352
0.000234	-1.29822	0.000234	0.000610352	0.000234	0.0012207	0.000234	-0.000610352
0.000235	-1.29517	0.000235	0	0.000235	0.0012207	0.000235	-0.000610352
0.000235	-1.29211	0.000235	0.000610352	0.000235	0.000610352	0.000235	0
0.000236	-1.28906	0.000236	-0.000610352	0.000236	0.0012207	0.000236	-0.000610352
0.000236	-1.28601	0.000236	0.000610352	0.000236	0.000610352	0.000236	-0.000610352
0.000236	-1.28174	0.000236	-0.000610352	0.000236	0.000610352	0.000236	0
0.000237	-1.27808	0.000237	0	0.000237	0	0.000237	-0.000610352
0.000237	-1.27563	0.000237	-0.000610352	0.000237	0.000610352	0.000237	-0.000610352
0.000238	-1.27197	0.000238	-0.000610352	0.000238	0.0012207	0.000238	-0.000610352
0.000238	-1.27014	0.000238	-0.000610352	0.000238	0	0.000238	-0.000610352
0.000238	-1.26587	0.000238	0	0.000238	0.0012207	0.000238	0
0.000239	-1.26282	0.000239	0.000610352	0.000239	0.000610352	0.000239	0.000610352
0.000239	-1.25977	0.000239	0	0.000239	0.00183105	0.000239	0.000610352
0.00024	-1.2561	0.00024	0.000610352	0.00024	0.0012207	0.00024	-0.000610352
0.00024	-1.25366	0.00024	0.000610352	0.00024	0	0.00024	-0.000610352
0.00024	-1.25061	0.00024	-0.000610352	0.00024	0.0012207	0.00024	0.000610352
0.000241	-1.24756	0.000241	-0.000610352	0.000241	0.000610352	0.000241	-0.000610352
0.000241	-1.24451	0.000241	0	0.000241	0.000610352	0.000241	-0.000610352
0.000242	-1.24023	0.000242	0	0.000242	0.0012207	0.000242	0.000610352
0.000242	-1.23718	0.000242	0	0.000242	0	0.000242	0
0.000242	-1.23413	0.000242	0	0.000242	0.0012207	0.000242	-0.000610352
0.000243	-1.23047	0.000243	-0.000610352	0.000243	0.000610352	0.000243	0.000610352
0.000243	-1.22864	0.000243	0	0.000243	0.0012207	0.000243	0.000610352
0.000244	-1.22437	0.000244	-0.000610352	0.000244	0	0.000244	0.000610352
0.000244	-1.22192	0.000244	-0.000610352	0.000244	0.00183105	0.000244	-0.000610352
0.000244	-1.21887	0.000244	-0.0012207	0.000244	0	0.000244	-0.000610352
0.000245	-1.21582	0.000245	-0.000610352	0.000245	0	0.000245	0.000610352
0.000245	-1.21399	0.000245	0	0.000245	0.000610352	0.000245	0.000610352
0.000246	-1.20972	0.000246	0	0.000246	0.000610352	0.000246	-0.000610352
0.000246	-1.20728	0.000246	0	0.000246	0.000610352	0.000246	0.000610352
0.000246	-1.20422	0.000246	0	0.000246	0.000610352	0.000246	0
0.000247	-1.20056	0.000247	-0.000610352	0.000247	0.0012207	0.000247	0
0.000247	-1.19812	0.000247	0.000610352	0.000247	0.000610352	0.000247	-0.0012207
0.000248	-1.19446	0.000248	0	0.000248	0	0.000248	0
0.000248	-1.19263	0.000248	0	0.000248	0.000610352	0.000248	0
0.000248	-1.18835	0.000248	0	0.000248	0.0012207	0.000248	-0.000610352
0.000249	-1.1853	0.000249	-0.000610352	0.000249	0.000610352	0.000249	-0.000610352
0.000249	-1.18347	0.000249	0.000610352	0.000249	0.000610352	0.000249	-0.000610352
0.00025	-1.17981	0.00025	0	0.00025	0.0012207	0.00025	0
0.00025	-1.17676	0.00025	0	0.00025	0.0012207	0.00025	0
0.00025	-1.17493	0.00025	-0.000610352	0.00025	0.000610352	0.00025	0
0.000251	-1.17004	0.000251	0	0.000251	0.0012207	0.000251	0
0.000251	-1.16821	0.000251	-0.000610352	0.000251	0.000610352	0.000251	0.000610352
0.000252	-1.16455	0.000252	0	0.000252	0.000610352	0.000252	0
0.000252	-1.16211	0.000252	-0.000610352	0.000252	0	0.000252	0
0.000252	-1.15967	0.000252	0.000610352	0.000252	0.0012207	0.000252	0
0.000253	-1.15662	0.000253	0	0.000253	0.0012207	0.000253	0.000610352
0.000253	-1.15234	0.000253	0.000610352	0.000253	0.000610352	0.000253	0
0.000254	-1.15051	0.000254	0	0.000254	0.0012207	0.000254	-0.000610352
0.000254	-1.14685	0.000254	0	0.000254	0.0012207	0.000254	0
0.000254	-1.14441	0.000254	-0.000610352	0.000254	0.000610352	0.000254	0
0.000255	-1.14197	0.000255	-0.000610352	0.000255	0.000610352	0.000255	-0.000610352
0.000255	-1.14014	0.000255	0	0.000255	0.000610352	0.000255	-0.000610352
0.000256	-1.13647	0.000256	-0.000610352	0.000256	-0.000610352	0.000256	-0.000610352
0.000256	-1.13342	0.000256	0	0.000256	0.000610352	0.000256	0
0.000256	-1.12976	0.000256	-0.000610352	0.000256	0.0012207	0.000256	-0.0012207
0.000257	-1.12793	0.000257	0	0.000257	0.000610352	0.000257	-0.000610352
0.000257	-1.12488	0.000257	0	0.000257	0.0012207	0.000257	0.000610352
0.000258	-1.12305	0.000258	-0.000610352	0.000258	0.000610352	0.000258	0
0.000258	-1.11877	0.000258	0	0.000258	0.000610352	0.000258	-0.000610352
0.000258	-1.11694	0.000258	0	0.000258	0.0012207	0.000258	0
0.000259	-1.11389	0.000259	0	0.000259	0.0012207	0.000259	0
0.000259	-1.11145	0.000259	0	0.000259	0.000610352	0.000259	0
0.00026	-1.10779	0.00026	0	0.00026	0.000610352	0.00026	-0.000610352
0.00026	-1.10535	0.00026	0.000610352	0.00026	0.000610352	0.00026	-0.000610352
0.00026	-1.10291	0.00026	-0.000610352	0.00026	0.000610352	0.00026	-0.000610352
0.000261	-1.10046	0.000261	-0.0012207	0.000261	0	0.000261	0
0.000261	-1.09802	0.000261	0	0.000261	0.000610352	0.000261	0
0.000262	-1.09497	0.000262	0	0.000262	0.000610352	0.000262	0
0.000262	-1.09192	0.000262	0	0.000262	0.000610352	0.000262	-0.0012207
0.000262	-1.08887	0.000262	0	0.000262	0.0012207	0.000262	-0.000610352
0.000263	-1.08643	0.000263	0.000610352	0.000263	0.000610352	0.000263	-0.000610352
0.000263	-1.08398	0.000263	-0.000610352	0.000263	0	0.000263	0
0.000264	-1.08093	0.000264	-0.000610352	0.000264	0.0012207	0.000264	0
0.000264	-1.07788	0.000264	0	0.000264	0.000610352	0.000264	0
0.000264	-1.07483	0.000264	-0.000610352	0.000264	0.00183105	0.000264	0
0.000265	-1.07239	0.000265	0.000610352	0.000265	0.0012207	0.000265	0.0012207
0.000265	-1.07056	0.000265	0	0.000265	0	0.000265	-0.000610352
0.000266	-1.0675	0.000266	0	0.000266	0.0012207	0.000266	-0.000610352
0.000266	-1.06506	0.000266	0	0.000266	0.000610352	0.000266	0
0.000266	-1.06201	0.000266	-0.000610352	0.000266	0.0012207	0.000266	0
0.000267	-1.05957	0.000267	0.000610352	0.000267	0.0012207	0.000267	-0.000610352
0.000267	-1.05774	0.000267	0.0012207	0.000267	0.000610352	0.000267	-0.000610352
0.000268	-1.05469	0.000268	0	0.000268	0.000610352	0.000268	0
0.000268	-1.05164	0.000268	0	0.000268	0.000610352	0.000268	0.000610352
0.000268	-1.04858	0.000268	0.000610352	0.000268	0.000610352	0.000268	-0.000610352
0.000269	-1.04675	0.000269	0.000610352	0.000269	0.0012207	0.000269	0
0.000269	-1.04431	0.000269	0.000610352	0.000269	0.0012207	0.000269	0
0.00027	-1.04126	0.00027	0	0.00027	0.000610352	0.00027	0
0.00027	-1.03882	0.00027	0.000610352	0.00027	-0.000610352	0.00027	-0.000610352
0.00027	-1.03638	0.00027	0	0.00027	0.000610352	0.00027	-0.000610352
0.000271	-1.03394	0.000271	0	0.000271	0.000610352	0.000271	-0.000610352
0.000271	-1.0321	0.000271	0	0.000271	0.000610352	0.000271	0
0.000272	-1.02905	0.000272	-0.000610352	0.000272	0.000610352	0.000272	0.0012207
0.000272	-1.026	0.000272	0	0.000272	0.0012207	0.000272	0
0.000272	-1.02356	0.000272	-0.000610352	0.000272	0.0012207	0.000272	0
0.000273	-1.02112	0.000273	-0.000610352	0.000273	0.000610352	0.000273	-0.000610352
0.000273	-1.01929	0.000273	0	0.000273	0.0012207	0.000273	-0.000610352
0.000274	-1.01624	0.000274	-0.000610352	0.000274	0.0012207	0.000274	-0.000610352
0.000274	-1.01318	0.000274	0.000610352	0.000274	0.0012207	0.000274	0
0.000274	-1.01135	0.000274	0	0.000274	0.00183105	0.000274	0.000610352
0.000275	-1.0083	0.000275	0	0.000275	0.000610352	0.000275	-0.000610352
0.000275	-1.00586	0.000275	0	0.000275	0.000610352	0.000275	-0.0012207
0.000276	-1.00403	0.000276	0.000610352	0.000276	0.000610352	0.000276	0
0.000276	-1.00159	0.000276	-0.000610352	0.000276	0.000610352	0.000276	0.000610352
0.000276	-0.998535	0.000276	0	0.000276	0.000610352	0.000276	0
0.000277	-0.996094	0.000277	0	0.000277	0.0012207	0.000277	0
0.000277	-0.993652	0.000277	0	0.000277	0.000610352	0.000277	-0.000610352
0.000278	-0.990601	0.000278	-0.000610352	0.000278	0.000610352	0.000278	-0.000610352
0.000278	-0.988159	0.000278	0	0.000278	0.00183105	0.000278	0
0.000278	-0.986328	0.000278	-0.000610352	0.000278	0	0.000278	-0.000610352
0.000279	-0.983276	0.000279	0.000610352	0.000279	0	0.000279	-0.000610352
0.000279	-0.980835	0.000279	0	0.000279	0.0012207	0.000279	0
0.00028	-0.979004	0.00028	0	0.00028	0.000610352	0.00028	0
0.00028	-0.977173	0.00028	-0.000610352	0.00028	0.0012207	0.00028	0
0.00028	-0.974121	0.00028	-0.000610352	0.00028	0	0.00028	0.000610352
0.000281	-0.97168	0.000281	-0.0012207	0.000281	0.000610352	0.000281	-0.000610352
0.000281	-0.969238	0.000281	0	0.000281	0.000610352	0.000281	0.000610352
0.000282	-0.966187	0.000282	-0.000610352	0.000282	0.0012207	0.000282	-0.000610352
0.000282	-0.964966	0.000282	-0.000610352	0.000282	0.000610352	0.000282	0
0.000282	-0.961914	0.000282	0	0.000282	0.000610352	0.000282	0
0.000283	-0.960083	0.000283	0	0.000283	0	0.000283	-0.0012207
0.000283	-0.957642	0.000283	-0.000610352	0.000283	0.000610352	0.000283	-0.000610352
0.000284	-0.95459	0.000284	0	0.000284	0	0.000284	0
0.000284	-0.951538	0.000284	-0.000610352	0.000284	0.000610352	0.000284	-0.000610352
0.000284	-0.949707	0.000284	0	0.000284	0.00183105	0.000284	0
0.000285	-0.948486	0.000285	0	0.000285	0.0012207	0.000285	0
0.000285	-0.945435	0.000285	0.000610352	0.000285	0.0012207	0.000285	-0.000610352
0.000286	-0.943604	0.000286	0	0.000286	0.00183105	0.000286	0.000610352
0.000286	-0.940552	0.000286	0	0.000286	0.000610352	0.000286	-0.000610352
0.000286	-0.939331	0.000286	0.000610352	0.000286	0.0012207	0.000286	-0.000610352
0.000287	-0.936279	0.000287	0.000610352	0.000287	0.0012207	0.000287	0
0.000287	-0.934448	0.000287	-0.000610352	0.000287	0.0012207	0.000287	0
0.000288	-0.931396	0.000288	0	0.000288	0	0.000288	-0.000610352
0.000288	-0.929565	0.000288	0	0.000288	0	0.000288	-0.000610352
0.000288	-0.927124	0.000288	0	0.000288	0	0.000288	0
0.000289	-0.924072	0.000289	0	0.000289	0.0012207	0.000289	-0.000610352
0.000289	-0.922241	0.000289	0	0.000289	0.000610352	0.000289	0
0.00029	-0.919189	0.00029	-0.000610352	0.00029	0.0012207	0.00029	0
0.00029	-0.917969	0.00029	-0.000610352	0.00029	0.0012207	0.00029	0
0.00029	-0.914917	0.00029	0	0.00029	0.000610352	0.00029	0
0.000291	-0.913086	0.000291	0	0.000291	0.0012207	0.000291	0.000610352
0.000291	-0.910645	0.000291	0	0.000291	0.000610352	0.000291	0
0.000292	-0.908203	0.000292	0	0.000292	0.0012207	0.000292	0
0.000292	-0.906982	0.000292	-0.000610352	0.000292	0.0012207	0.000292	-0.0012207
0.000292	-0.905151	0.000292	0.000610352	0.000292	0.000610352	0.000292	0
0.000293	-0.901489	0.000293	-0.0012207	0.000293	0.000610352	0.000293	0
0.000293	-0.900879	0.000293	0	0.000293	0.000610352	0.000293	-0.000610352
0.000294	-0.897827	0.000294	0	0.000294	0.000610352	0.000294	-0.000610352
0.000294	-0.895386	0.000294	0	0.000294	0.0012207	0.000294	-0.0012207
0.000294	-0.893555	0.000294	0	0.000294	0.0012207	0.000294	0
0.000295	-0.891113	0.000295	0	0.000295	0	0.000295	-0.000610352
0.000295	-0.888062	0.000295	0.000610352	0.000295	0	0.000295	0
0.000296	-0.88623	0.000296	0	0.000296	0.0012207	0.000296	0.000610352
0.000296	-0.884399	0.000296	0.000610352	0.000296	0	0.000296	-0.000610352
0.000296	-0.881958	0.000296	0	0.000296	0.0012207	0.000296	0
0.000297	-0.879517	0.000297	-0.000610352	0.000297	0.0012207	0.000297	-0.000610352
0.000297	-0.878296	0.000297	-0.000610352	0.000297	0.000610352	0.000297	-0.000610352
0.000298	-0.876465	0.000298	0	0.000298	0.000610352	0.000298	-0.000610352
0.000298	-0.872803	0.000298	-0.000610352	0.000298	0.000610352	0.000298	-0.000610352
0.000298	-0.870972	0.000298	-0.0012207	0.000298	0.000610352	0.000298	-0.000610352
0.000299	-0.869141	0.000299	0.000610352	0.000299	0.0012207	0.000299	-0.000610352
0.000299	-0.86792	0.000299	0.000610352	0.000299	0.00183105	0.000299	0
0.0003	-0.863647	0.0003	-0.000610352	0.0003	0.000610352	0.0003	0.000610352
0.0003	-0.863647	0.0003	0	0.0003	0.0012207	0.0003	0.000610352
0.0003	-0.860596	0.0003	0.000610352	0.0003	0.000610352	0.0003	-0.000610352
0.000301	-0.858154	0.000301	0	0.000301	0.000610352	0.000301	-0.000610352
0.000301	-0.856323	0.000301	-0.000610352	0.000301	0.000610352	0.000301	-0.000610352
0.000302	-0.853882	0.000302	-0.000610352	0.000302	0.000610352	0.000302	-0.000610352
0.000302	-0.852051	0.000302	0.000610352	0.000302	0.000610352	0.000302	0
0.000302	-0.85022	0.000302	-0.000610352	0.000302	0.000610352	0.000302	-0.000610352
0.000303	-0.847778	0.000303	0.000610352	0.000303	0.000610352	0.000303	-0.000610352
0.000303	-0.845337	0.000303	-0.000610352	0.000303	0.000610352	0.000303	0
0.000304	-0.843506	0.000304	0.000610352	0.000304	0.000610352	0.000304	0
0.000304	-0.841064	0.000304	0	0.000304	0.0012207	0.000304	-0.000610352
0.000304	-0.838623	0.000304	0.000610352	0.000304	0.000610352	0.000304	0
0.000305	-0.837402	0.000305	-0.000610352	0.000305	0.0012207	0.000305	-0.000610352
0.000305	-0.834961	0.000305	-0.000610352	0.000305	0.000610352	0.000305	0
0.000306	-0.83374	0.000306	0	0.000306	0.0012207	0.000306	0.000610352
0.000306	-0.830688	0.000306	0	0.000306	0.000610352	0.000306	0.000610352
0.000306	-0.828247	0.000306	0	0.000306	0.0012207	0.000306	0
0.000307	-0.827637	0.000307	0	0.000307	0.000610352	0.000307	-0.000610352
0.000307	-0.824585	0.000307	0	0.000307	0.00183105	0.000307	-0.000610352
0.000308	-0.822144	0.000308	0	0.000308	0.000610352	0.000308	0.000610352
0.000308	-0.821533	0.000308	0.000610352	0.000308	0.000610352	0.000308	0
0.000308	-0.819092	0.000308	0.000610352	0.000308	0.000610352	0.000308	-0.000610352
0.000309	-0.81665	0.000309	0.000610352	0.000309	0.000610352	0.000309	-0.000610352
0.000309	-0.814819	0.000309	0.000610352	0.000309	0	0.000309	-0.000610352
0.00031	-0.812988	0.00031	0.000610352	0.00031	0.000610352	0.00031	0
0.00031	-0.811157	0.00031	0	0.00031	0.0012207	0.00031	-0.000610352
0.00031	-0.808716	0.00031	0	0.00031	0.000610352	0.00031	0
0.000311	-0.806885	0.000311	0.000610352	0.000311	0.00183105	0.000311	0.000610352
0.000311	-0.805664	0.000311	0	0.000311	0.000610352	0.000311	-0.000610352
0.000312	-0.803223	0.000312	0.000610352	0.000312	0.000610352	0.000312	0.000610352
0.000312	-0.800781	0.000312	0	0.000312	0.000610352	0.000312	0
0.000312	-0.799561	0.000312	0.000610352	0.000312	0.000610352	0.000312	-0.0012207
0.000313	-0.797119	0.000313	-0.0012207	0.000313	0.0012207	0.000313	-0.000610352
0.000313	-0.794678	0.000313	-0.000610352	0.000313	0	0.000313	0.000610352
0.000314	-0.792847	0.000314	-0.000610352	0.000314	0.000610352	0.000314	0
0.000314	-0.791016	0.000314	0	0.000314	0.000610352	0.000314	0
0.000314	-0.789185	0.000314	0	0.000314	0.0012207	0.000314	-0.000610352
0.000315	-0.786743	0.000315	-0.000610352	0.000315	0.000610352	0.000315	0.000610352
0.000315	-0.784912	0.000315	0	0.000315	0.00183105	0.000315	-0.000610352
0.000316	-0.782471	0.000316	-0.000610352	0.000316	0.000610352	0.000316	0
0.000316	-0.78064	0.000316	0	0.000316	0.00183105	0.000316	-0.000610352
0.000316	-0.778198	0.000316	-0.000610352	0.000316	0	0.000316	0
0.000317	-0.777588	0.000317	0	0.000317	0.0012207	0.000317	0
0.000317	-0.775146	0.000317	0	0.000317	0.000610352	0.000317	0
0.000318	-0.773315	0.000318	-0.000610352	0.000318	0.000610352	0.000318	0.000610352
0.000318	-0.770874	0.000318	0	0.000318	0.000610352	0.000318	-0.000610352
0.000318	-0.769043	0.000318	0.000610352	0.000318	0.000610352	0.000318	-0.000610352
0.000319	-0.767212	0.000319	0.0012207	0.000319	0.000610352	0.000319	0
0.000319	-0.765991	0.000319	0.000610352	0.000319	0	0.000319	0.000610352
0.00032	-0.76355	0.00032	0	0.00032	0	0.00032	-0.000610352
0.00032	-0.761108	0.00032	0	0.00032	0.000610352	0.00032	0.000610352
0.00032	-0.759888	0.00032	-0.000610352	0.00032	0.000610352	0.00032	-0.000610352
0.000321	-0.758057	0.000321	-0.000610352	0.000321	0.000610352	0.000321	-0.000610352
0.000321	-0.755615	0.000321	0	0.000321	0.0012207	0.000321	0.000610352
0.000322	-0.753784	0.000322	-0.000610352	0.000322	0.000610352	0.000322	-0.000610352
0.000322	-0.753174	0.000322	0	0.000322	0.000610352	0.000322	0
0.000322	-0.750122	0.000322	0	0.000322	0.000610352	0.000322	0
0.000323	-0.747681	0.000323	-0.0012207	0.000323	0.0012207	0.000323	0
0.000323	-0.74646	0.000323	0	0.000323	0.000610352	0.000323	-0.000610352
0.000324	-0.744019	0.000324	0	0.000324	0.0012207	0.000324	-0.000610352
0.000324	-0.743408	0.000324	0.000610352	0.000324	0.000610352	0.000324	0.000610352
0.000324	-0.741577	0.000324	-0.000610352	0.000324	0.000610352	0.000324	0
0.000325	-0.739136	0.000325	0.000610352	0.000325	0.000610352	0.000325	-0.000610352
0.000325	-0.737305	0.000325	-0.000610352	0.000325	0.000610352	0.000325	0
0.000326	-0.735474	0.000326	-0.000610352	0.000326	0.0012207	0.000326	0.000610352
0.000326	-0.734253	0.000326	0	0.000326	0.0012207	0.000326	-0.0012207
0.000326	-0.732422	0.000326	0	0.000326	0	0.000326	0.000610352
0.000327	-0.72998	0.000327	-0.000610352	0.000327	0.0012207	0.000327	-0.000610352
0.000327	-0.72876	0.000327	0	0.000327	0	0.000327	-0.000610352
0.000328	-0.726318	0.000328	0.000610352	0.000328	0.00183105	0.000328	-0.0012207
0.000328	-0.724487	0.000328	0	0.000328	0.0012207	0.000328	-0.000610352
0.000328	-0.723267	0.000328	0	0.000328	0.0012207	0.000328	-0.000610352
0.000329	-0.721436	0.000329	-0.000610352	0.000329	0.0012207	0.000329	0.000610352
0.000329	-0.719604	0.000329	-0.000610352	0.000329	0	0.000329	-0.000610352
0.00033	-0.717773	0.00033	0.000610352	0.00033	0.0012207	0.00033	0
0.00033	-0.716553	0.00033	0	0.00033	0	0.00033	-0.000610352
0.00033	-0.713501	0.00033	-0.0012207	0.00033	0.000610352	0.00033	-0.000610352
0.000331	-0.71228	0.000331	-0.000610352	0.000331	0.000610352	0.000331	-0.000610352
0.000331	-0.71167	0.000331	0	0.000331	0.000610352	0.000331	-0.000610352
0.000332	-0.708618	0.000332	0.000610352	0.000332	0.000610352	0.000332	-0.0012207
0.000332	-0.706177	0.000332	-0.000610352	0.000332	0.000610352	0.000332	0
0.000332	-0.705566	0.000332	0	0.000332	0.0012207	0.000332	-0.000610352
0.000333	-0.703735	0.000333	0	0.000333	0.000610352	0.000333	0
0.000333	-0.701294	0.000333	0	0.000333	0.0012207	0.000333	-0.000610352
0.000334	-0.699463	0.000334	-0.000610352	0.000334	0.000610352	0.000334	-0.000610352
0.000334	-0.697632	0.000334	0.000610352	0.000334	0.0012207	0.000334	-0.000610352
0.000334	-0.696411	0.000334	0	0.000334	0.000610352	0.000334	0
0.000335	-0.69397	0.000335	0	0.000335	0.0012207	0.000335	0
0.000335	-0.692749	0.000335	0.000610352	0.000335	0.0012207	0.000335	0
0.000336	-0.690308	0.000336	-0.000610352	0.000336	0.000610352	0.000336	0
0.000336	-0.689087	0.000336	-0.000610352	0.000336	0.0012207	0.000336	0.000610352
0.000336	-0.687256	0.000336	0.000610352	0.000336	0.0012207	0.000336	0.000610352
0.000337	-0.685425	0.000337	0	0.000337	0.0012207	0.000337	0.000610352
0.000337	-0.683594	0.000337	0.000610352	0.000337	0.000610352	0.000337	-0.000610352
0.000338	-0.681763	0.000338	0	0.000338	0.000610352	0.000338	-0.000610352
0.000338	-0.679932	0.000338	-0.000610352	0.000338	0.000610352	0.000338	0.000610352
0.000338	-0.678711	0.000338	0.000610352	0.000338	0.0012207	0.000338	0
0.000339	-0.67688	0.000339	-0.000610352	0.000339	0.00183105	0.000339	-0.000610352
0.000339	-0.675049	0.000339	-0.000610352	0.000339	0	0.000339	-0.000610352
0.00034	-0.673218	0.00034	0.000610352	0.00034	0.000610352	0.00034	0.000610352
0.00034	-0.671997	0.00034	0	0.00034	0	0.00034	0.000610352
0.00034	-0.669556	0.00034	0	0.00034	0.000610352	0.00034	0
0.000341	-0.668335	0.000341	-0.000610352	0.000341	0.0012207	0.000341	0
0.000341	-0.667114	0.000341	-0.000610352	0.000341	0.000610352	0.000341	-0.000610352
0.000342	-0.665283	0.000342	0	0.000342	0.000610352	0.000342	-0.000610352
0.000342	-0.663452	0.000342	0.0012207	0.000342	0.000610352	0.000342	0.000610352
0.000342	-0.661621	0.000342	-0.000610352	0.000342	0.0012207	0.000342	0
0.000343	-0.6604	0.000343	0.000610352	0.000343	0.000610352	0.000343	-0.000610352
0.000343	-0.657959	0.000343	-0.000610352	0.000343	0.000610352	0.000343	-0.000610352
0.000344	-0.656738	0.000344	-0.000610352	0.000344	0.000610352	0.000344	0
0.000344	-0.655518	0.000344	-0.0012207	0.000344	0.0012207	0.000344	0.000610352
0.000344	-0.653076	0.000344	0.000610352	0.000344	0.0012207	0.000344	0
0.000345	-0.651855	0.000345	-0.000610352	0.000345	0.000610352	0.000345	0
0.000345	-0.650024	0.000345	-0.000610352	0.000345	0.000610352	0.000345	0
0.000346	-0.647583	0.000346	0.000610352	0.000346	0.000610352	0.000346	0.000610352
0.000346	-0.646973	0.000346	0	0.000346	0.000610352	0.000346	-0.000610352
0.000346	-0.643921	0.000346	0	0.000346	0.000610352	0.000346	0
0.000347	-0.643921	0.000347	0.000610352	0.000347	0.0012207	0.000347	-0.000610352
0.000347	-0.640869	0.000347	0	0.000347	0.000610352	0.000347	0.000610352
0.000348	-0.639648	0.000348	-0.000610352	0.000348	0.000610352	0.000348	-0.000610352
0.000348	-0.638428	0.000348	-0.000610352	0.000348	0.0012207	0.000348	0.000610352
0.000348	-0.637207	0.000348	0	0.000348	0.000610352	0.000348	0.000610352
0.000349	-0.637207	0.000349	-0.000610352	0.000349	0.000610352	0.000349	0
0.000349	-0.633545	0.000349	0	0.000349	0	0.000349	-0.000610352
0.00035	-0.632324	0.00035	0	0.00035	0.000610352	0.00035	0.000610352
0.00035	-0.631104	0.00035	0	0.00035	0.000610352	0.00035	0
0.00035	-0.628662	0.00035	-0.000610352	0.00035	0.000610352	0.00035	0
0.000351	-0.627441	0.000351	0.000610352	0.000351	0.000610352	0.000351	0
0.000351	-0.626221	0.000351	0	0.000351	0.000610352	0.000351	0.000610352
0.000352	-0.62439	0.000352	0	0.000352	0.000610352	0.000352	0
0.000352	-0.623169	0.000352	-0.000610352	0.000352	0.00183105	0.000352	0.000610352
0.000352	-0.620728	0.000352	-0.000610352	0.000352	0.0012207	0.000352	-0.000610352
0.000353	-0.618896	0.000353	-0.0012207	0.000353	0.000610352	0.000353	0
0.000353	-0.618286	0.000353	0.0012207	0.000353	0.000610352	0.000353	-0.000610352
0.000354	-0.615845	0.000354	0	0.000354	0.000610352	0.000354	0.000610352
0.000354	-0.615234	0.000354	-0.000610352	0.000354	0.000610352	0.000354	0
0.000354	-0.612793	0.000354	0	0.000354	0.000610352	0.000354	0
0.000355	-0.611572	0.000355	0	0.000355	0.0012207	0.000355	-0.0012207
0.000355	-0.610352	0.000355	-0.000610352	0.000355	0.0012207	0.000355	-0.000610352
0.000356	-0.608521	0.000356	0.000610352	0.000356	0.000610352	0.000356	0
0.000356	-0.6073	0.000356	0	0.000356	0.0012207	0.000356	0.000610352
0.000356	-0.605469	0.000356	0	0.000356	0.00183105	0.000356	0.000610352
0.000357	-0.604858	0.000357	-0.000610352	0.000357	0.000610352	0.000357	-0.000610352
0.000357	-0.602417	0.000357	0	0.000357	0.0012207	0.000357	0.000610352
0.000358	-0.601196	0.000358	-0.000610352	0.000358	0.0012207	0.000358	-0.000610352
0.000358	-0.599365	0.000358	-0.000610352	0.000358	0.000610352	0.000358	0.000610352
0.000358	-0.596924	0.000358	-0.000610352	0.000358	0.00183105	0.000358	0
0.000359	-0.596313	0.000359	-0.000610352	0.000359	0.0012207	0.000359	0
0.000359	-0.595093	0.000359	0	0.000359	0.000610352	0.000359	0.000610352
0.00036	-0.592651	0.00036	0	0.00036	0.0012207	0.00036	0.000610352
0.00036	-0.592041	0.00036	-0.000610352	0.00036	0.0012207	0.00036	-0.000610352
0.00036	-0.5896	0.00036	-0.000610352	0.00036	0.0012207	0.00036	0
0.000361	-0.588989	0.000361	0	0.000361	0.000610352	0.000361	-0.0012207
0.000361	-0.587769	0.000361	0.000610352	0.000361	0	0.000361	-0.000610352
0.000362	-0.586548	0.000362	0	0.000362	0.00183105	0.000362	0
0.000362	-0.584717	0.000362	-0.000610352	0.000362	0.0012207	0.000362	-0.0012207
0.000362	-0.582886	0.000362	0.000610352	0.000362	0.000610352	0.000362	0
0.000363	-0.581055	0.000363	-0.000610352	0.000363	0.000610352	0.000363	-0.000610352
0.000363	-0.579224	0.000363	0	0.000363	0.000610352	0.000363	0
0.000364	-0.578003	0.000364	-0.000610352	0.000364	0.000610352	0.000364	-0.000610352
0.000364	-0.576782	0.000364	0	0.000364	0.000610352	0.000364	0
0.000364	-0.575562	0.000364	-0.000610352	0.000364	0.00183105	0.000364	0
0.000365	-0.574341	0.000365	0	0.000365	0.0012207	0.000365	0.0012207
0.000365	-0.57251	0.000365	-0.000610352	0.000365	0.0012207	0.000365	-0.000610352
0.000366	-0.570679	0.000366	0.000610352	0.000366	0.0012207	0.000366	0
0.000366	-0.568848	0.000366	-0.000610352	0.000366	0.000610352	0.000366	0
0.000366	-0.568848	0.000366	0	0.000366	0	0.000366	0
0.000367	-0.565796	0.000367	-0.000610352	0.000367	0.000610352	0.000367	0
0.000367	-0.565796	0.000367	0	0.000367	0.0012207	0.000367	-0.000610352
0.000368	-0.563965	0.000368	-0.000610352	0.000368	0.0012207	0.000368	0.000610352
0.000368	-0.562134	0.000368	0.000610352	0.000368	0.000610352	0.000368	-0.0012207
0.000368	-0.560303	0.000368	0	0.000368	0.000610352	0.000368	-0.0012207
0.000369	-0.559082	0.000369	-0.000610352	0.000369	0.000610352	0.000369	-0.000610352
0.000369	-0.558472	0.000369	0	0.000369	0	0.000369	0
0.00037	-0.556641	0.00037	0	0.00037	0.0012207	0.00037	0
0.00037	-0.55542	0.00037	-0.000610352	0.00037	0.0012207	0.00037	0
0.00037	-0.553589	0.00037	0	0.00037	0.000610352	0.00037	0.000610352
0.000371	-0.551758	0.000371	-0.0012207	0.000371	0.000610352	0.000371	-0.000610352
0.000371	-0.550537	0.000371	-0.000610352	0.000371	0.000610352	0.000371	-0.000610352
0.000372	-0.548706	0.000372	-0.000610352	0.000372	0.000610352	0.000372	-0.000610352
0.000372	-0.547485	0.000372	0.000610352	0.000372	0.000610352	0.000372	0
0.000372	-0.546265	0.000372	0.000610352	0.000372	0.0012207	0.000372	0
0.000373	-0.545654	0.000373	0	0.000373	0.000610352	0.000373	0
0.000373	-0.543823	0.000373	0	0.000373	0.000610352	0.000373	0.000610352
0.000374	-0.541992	0.000374	0	0.000374	0	0.000374	-0.000610352
0.000374	-0.541382	0.000374	-0.0012207	0.000374	0.000610352	0.000374	-0.0012207
0.000374	-0.53894	0.000374	0	0.000374	0.0012207	0.000374	-0.000610352
0.000375	-0.537109	0.000375	-0.000610352	0.000375	0	0.000375	0.000610352
0.000375	-0.537109	0.000375	0.000610352	0.000375	0	0.000375	-0.0012207
0.000376	-0.534668	0.000376	-0.000610352	0.000376	0.000610352	0.000376	-0.0012207
0.000376	-0.533447	0.000376	-0.000610352	0.000376	0	0.000376	0
0.000376	-0.532227	0.000376	0.000610352	0.000376	0.00183105	0.000376	0.000610352
0.000377	-0.531006	0.000377	-0.000610352	0.000377	0.0012207	0.000377	0.000610352
0.000377	-0.529785	0.000377	0.000610352	0.000377	0	0.000377	0
0.000378	-0.528564	0.000378	0.000610352	0.000378	0.000610352	0.000378	0.000610352
0.000378	-0.526733	0.000378	0	0.000378	0	0.000378	0
0.000378	-0.525513	0.000378	0	0.000378	0.000610352	0.000378	-0.000610352
0.000379	-0.523682	0.000379	-0.000610352	0.000379	0	0.000379	-0.000610352
0.000379	-0.522461	0.000379	0	0.000379	0.0012207	0.000379	0
0.00038	-0.521851	0.00038	0	0.00038	0.000610352	0.00038	-0.0012207
0.00038	-0.52002	0.00038	0	0.00038	0.00183105	0.00038	-0.000610352
0.00038	-0.518799	0.00038	0.0012207	0.00038	0.000610352	0.00038	-0.000610352
0.000381	-0.518188	0.000381	-0.000610352	0.000381	0.0012207	0.000381	-0.000610352
0.000381	-0.515747	0.000381	0	0.000381	0.00183105	0.000381	-0.000610352
0.000382	-0.514526	0.000382	0.000610352	0.000382	0.000610352	0.000382	0
0.000382	-0.513306	0.000382	-0.000610352	0.000382	0.000610352	0.000382	-0.000610352
0.000382	-0.512085	0.000382	-0.000610352	0.000382	0	0.000382	0.000610352
0.000383	-0.510254	0.000383	0.000610352	0.000383	0.0012207	0.000383	0
0.000383	-0.510254	0.000383	0	0.000383	0.0012207	0.000383	0
0.000384	-0.508423	0.000384	0.000610352	0.000384	0.00183105	0.000384	-0.000610352
0.000384	-0.506592	0.000384	0.000610352	0.000384	0.000610352	0.000384	-0.000610352
0.000384	-0.505371	0.000384	0.000610352	0.000384	0.00244141	0.000384	0
0.000385	-0.505371	0.000385	0	0.000385	0.0012207	0.000385	-0.000610352
0.000385	-0.50293	0.000385	-0.000610352	0.000385	0.0012207	0.000385	0
0.000386	-0.502319	0.000386	-0.000610352	0.000386	0.000610352	0.000386	-0.000610352
0.000386	-0.500488	0.000386	0.000610352	0.000386	0.000610352	0.000386	0.000610352
0.000386	-0.499268	0.000386	0	0.000386	0.0012207	0.000386	0
0.000387	-0.498657	0.000387	0	0.000387	0.000610352	0.000387	-0.0012207
0.000387	-0.496216	0.000387	0	0.000387	0	0.000387	0.000610352
0.000388	-0.494995	0.000388	0	0.000388	0.000610352	0.000388	-0.000610352
0.000388	-0.493164	0.000388	-0.000610352	0.000388	0.000610352	0.000388	0
0.000388	-0.493164	0.000388	0	0.000388	0.00183105	0.000388	0
0.000389	-0.490723	0.000389	0	0.000389	0.0012207	0.000389	0
0.000389	-0.490112	0.000389	0.000610352	0.000389	0.0012207	0.000389	0.000610352
0.00039	-0.489502	0.00039	-0.000610352	0.00039	0.000610352	0.00039	0
0.00039	-0.487061	0.00039	0	0.00039	0.000610352	0.00039	-0.000610352
0.00039	-0.485229	0.00039	0.000610352	0.00039	0.000610352	0.00039	-0.000610352
0.000391	-0.485229	0.000391	0	0.000391	0.000610352	0.000391	-0.000610352
0.000391	-0.483398	0.000391	0	0.000391	0.000610352	0.000391	-0.0012207
0.000392	-0.482178	0.000392	-0.000610352	0.000392	0	0.000392	-0.000610352
0.000392	-0.480347	0.000392	0	0.000392	0.00183105	0.000392	-0.0012207
0.000392	-0.479736	0.000392	-0.000610352	0.000392	0.00183105	0.000392	-0.000610352
0.000393	-0.477905	0.000393	0	0.000393	0.0012207	0.000393	0
0.000393	-0.477295	0.000393	0	0.000393	0.000610352	0.000393	0
0.000394	-0.476074	0.000394	0	0.000394	0.0012207	0.000394	0.000610352
0.000394	-0.475464	0.000394	0.000610352	0.000394	0.0012207	0.000394	-0.000610352
0.000394	-0.472412	0.000394	0.000610352	0.000394	0.000610352	0.000394	0
0.000395	-0.472412	0.000395	0	0.000395	0.000610352	0.000395	0.000610352
0.000395	-0.470581	0.000395	-0.000610352	0.000395	0.0012207	0.000395	0
0.000396	-0.46936	0.000396	-0.000610352	0.000396	0	0.000396	-0.000610352
0.000396	-0.46875	0.000396	0	0.000396	0	0.000396	-0.0012207
0.000396	-0.466309	0.000396	-0.000610352	0.000396	0.000610352	0.000396	-0.0012207
0.000397	-0.465698	0.000397	-0.000610352	0.000397	0.0012207	0.000397	-0.000610352
0.000397	-0.463867	0.000397	-0.000610352	0.000397	0.0012207	0.000397	0
0.000398	-0.463867	0.000398	0.000610352	0.000398	0.0012207	0.000398	-0.000610352
0.000398	-0.462036	0.000398	0	0.000398	0.000610352	0.000398	-0.000610352
0.000398	-0.461426	0.000398	0.000610352	0.000398	0.000610352	0.000398	0
0.000399	-0.459595	0.000399	-0.000610352	0.000399	0.000610352	0.000399	0.000610352
0.000399	-0.458984	0.000399	-0.000610352	0.000399	0.000610352	0.000399	0.000610352
0.0004	-0.458374	0.0004	0	0.0004	0.000610352	0.0004	-0.000610352
0.0004	-0.456543	0.0004	-0.0012207	0.0004	0	0.0004	-0.000610352
0.0004	-0.454102	0.0004	0.000610352	0.0004	0.0012207	0.0004	0.000610352
0.000401	-0.454102	0.000401	-0.000610352	0.000401	0	0.000401	0
0.000401	-0.452271	0.000401	-0.000610352	0.000401	0.000610352	0.000401	0
0.000402	-0.45166	0.000402	0	0.000402	0.0012207	0.000402	-0.0012207
0.000402	-0.450439	0.000402	0.000610352	0.000402	0.000610352	0.000402	0
0.000402	-0.448608	0.000402	0	0.000402	0.000610352	0.000402	0
0.000403	-0.447998	0.000403	0.000610352	0.000403	0.000610352	0.000403	0
0.000403	-0.446777	0.000403	0.000610352	0.000403	0	0.000403	-0.000610352
0.000404	-0.445557	0.000404	-0.000610352	0.000404	0.000610352	0.000404	0
0.000404	-0.444336	0.000404	0	0.000404	0.0012207	0.000404	0.000610352
0.000404	-0.443115	0.000404	0	0.000404	0.0012207	0.000404	-0.000610352
0.000405	-0.441895	0.000405	0	0.000405	0.0012207	0.000405	-0.000610352
0.000405	-0.441284	0.000405	-0.000610352	0.000405	0	0.000405	-0.000610352
0.000406	-0.438843	0.000406	-0.000610352	0.000406	0.00183105	0.000406	-0.000610352
0.000406	-0.438232	0.000406	0	0.000406	0.0012207	0.000406	0
0.000406	-0.437622	0.000406	-0.000610352	0.000406	0.000610352	0.000406	-0.000610352
0.000407	-0.435181	0.000407	0	0.000407	0.000610352	0.000407	0.000610352
0.000407	-0.43396	0.000407	0	0.000407	0.000610352	0.000407	-0.000610352
0.000408	-0.43335	0.000408	-0.000610352	0.000408	0.000610352	0.000408	-0.000610352
0.000408	-0.43335	0.000408	0	0.000408	0	0.000408	0
0.000408	-0.430908	0.000408	-0.000610352	0.000408	0.000610352	0.000408	0.000610352
0.000409	-0.430298	0.000409	-0.000610352	0.000409	0.000610352	0.000409	-0.000610352
0.000409	-0.429687	0.000409	-0.000610352	0.000409	0.000610352	0.000409	0.000610352
0.00041	-0.427856	0.00041	-0.000610352	0.00041	0.000610352	0.00041	0.000610352
0.00041	-0.426636	0.00041	-0.000610352	0.00041	0.000610352	0.00041	0
0.00041	-0.424805	0.00041	0	0.00041	0.0012207	0.00041	-0.000610352
0.000411	-0.424194	0.000411	0	0.000411	0	0.000411	0
0.000411	-0.422974	0.000411	-0.000610352	0.000411	0	0.000411	-0.000610352
0.000412	-0.421753	0.000412	-0.000610352	0.000412	0.000610352	0.000412	-0.000610352
0.000412	-0.421143	0.000412	-0.000610352	0.000412	0.000610352	0.000412	0.000610352
0.000412	-0.419922	0.000412	0	0.000412	0.0012207	0.000412	0
0.000413	-0.418701	0.000413	-0.000610352	0.000413	0.000610352	0.000413	0
0.000413	-0.41748	0.000413	0	0.000413	0.000610352	0.000413	0
0.000414	-0.41626	0.000414	-0.000610352	0.000414	0.000610352	0.000414	0
0.000414	-0.414429	0.000414	0.000610352	0.000414	0.0012207	0.000414	-0.000610352
0.000414	-0.413818	0.000414	0	0.000414	0.0012207	0.000414	0
0.000415	-0.412598	0.000415	-0.000610352	0.000415	0	0.000415	-0.0012207
0.000415	-0.411987	0.000415	-0.000610352	0.000415	0.0012207	0.000415	0.000610352
0.000416	-0.410156	0.000416	0	0.000416	0.0012207	0.000416	-0.000610352
0.000416	-0.409546	0.000416	-0.000610352	0.000416	0.000610352	0.000416	-0.000610352
0.000416	-0.408936	0.000416	0.000610352	0.000416	0.0012207	0.000416	0
0.000417	-0.407104	0.000417	0	0.000417	0.0012207	0.000417	-0.000610352
0.000417	-0.405884	0.000417	0.000610352	0.000417	0.0012207	0.000417	0
0.000418	-0.405884	0.000418	-0.000610352	0.000418	0.000610352	0.000418	0.000610352
0.000418	-0.404053	0.000418	0	0.000418	0.0012207	0.000418	0
0.000418	-0.403442	0.000418	0	0.000418	0.000610352	0.000418	0.000610352
0.000419	-0.402222	0.000419	0	0.000419	0.0012207	0.000419	-0.000610352
0.000419	-0.400391	0.000419	0	0.000419	0.000610352	0.000419	-0.000610352
0.00042	-0.39978	0.00042	-0.000610352	0.00042	0.000610352	0.00042	0.000610352
0.00042	-0.39917	0.00042	-0.000610352	0.00042	0.0012207	0.00042	-0.000610352
0.00042	-0.397949	0.00042	-0.000610352	0.00042	0	0.00042	0
0.000421	-0.396729	0.000421	0.000610352	0.000421	0.000610352	0.000421	0
0.000421	-0.394897	0.000421	0.000610352	0.000421	0.000610352	0.000421	-0.000610352
0.000422	-0.394897	0.000422	0.000610352	0.000422	0.0012207	0.000422	-0.000610352
0.000422	-0.393066	0.000422	-0.000610352	0.000422	0.0012207	0.000422	0
0.000422	-0.391235	0.000422	0	0.000422	0.000610352	0.000422	-0.000610352
0.000423	-0.391235	0.000423	0	0.000423	0.000610352	0.000423	0.000610352
0.000423	-0.390015	0.000423	0	0.000423	0.000610352	0.000423	-0.000610352
0.000424	-0.389404	0.000424	0.000610352	0.000424	0.0012207	0.000424	0.000610352
0.000424	-0.388184	0.000424	-0.000610352	0.000424	0	0.000424	0
0.000424	-0.386963	0.000424	0.000610352	0.000424	0.00183105	0.000424	-0.0012207
0.000425	-0.385742	0.000425	0.000610352	0.000425	0.0012207	0.000425	0.000610352
0.000425	-0.385742	0.000425	0	0.000425	-0.000610352	0.000425	-0.000610352
0.000426	-0.383911	0.000426	0.000610352	0.000426	0.000610352	0.000426	-0.000610352
0.000426	-0.383301	0.000426	0	0.000426	0.000610352	0.000426	0
0.000426	-0.38147	0.000426	0	0.000426	0.0012207	0.000426	0
0.000427	-0.380249	0.000427	0	0.000427	0.0012207	0.000427	0
0.000427	-0.379028	0.000427	0	0.000427	0.000610352	0.000427	0.000610352
0.000428	-0.378418	0.000428	0	0.000428	0.000610352	0.000428	-0.000610352
0.000428	-0.376587	0.000428	0	0.000428	0.0012207	0.000428	0
0.000428	-0.375366	0.000428	-0.000610352	0.000428	0.000610352	0.000428	0
0.000429	-0.374756	0.000429	0	0.000429	0.0012207	0.000429	-0.000610352
0.000429	-0.374146	0.000429	0.000610352	0.000429	0.000610352	0.000429	-0.000610352
0.00043	-0.373535	0.00043	0	0.00043	0.0012207	0.00043	0
0.00043	-0.371094	0.00043	0	0.00043	0.000610352	0.00043	-0.000610352
0.00043	-0.371094	0.00043	-0.000610352	0.00043	0.0012207	0.00043	0
0.000431	-0.370483	0.000431	-0.000610352	0.000431	0.000610352	0.000431	0
0.000431	-0.368652	0.000431	-0.000610352	0.000431	0.000610352	0.000431	0
0.000432	-0.368042	0.000432	-0.000610352	0.000432	0.000610352	0.000432	-0.000610352
0.000432	-0.366211	0.000432	0.000610352	0.000432	0.000610352	0.000432	-0.000610352
0.000432	-0.365601	0.000432	-0.0012207	0.000432	0.000610352	0.000432	-0.000610352
0.000433	-0.36499	0.000433	0	0.000433	0.000610352	0.000433	-0.0012207
0.000433	-0.36377	0.000433	-0.000610352	0.000433	0	0.000433	-0.000610352
0.000434	-0.363159	0.000434	-0.000610352	0.000434	0.000610352	0.000434	-0.000610352
0.000434	-0.361328	0.000434	0.000610352	0.000434	0.0012207	0.000434	0
0.000434	-0.361328	0.000434	-0.000610352	0.000434	0.0012207	0.000434	0.000610352
0.000435	-0.360107	0.000435	0.000610352	0.000435	0	0.000435	0
0.000435	-0.358887	0.000435	0.0012207	0.000435	0	0.000435	0
0.000436	-0.358276	0.000436	0.000610352	0.000436	0.000610352	0.000436	0
0.000436	-0.356445	0.000436	-0.000610352	0.000436	0.000610352	0.000436	0
0.000436	-0.355225	0.000436	-0.000610352	0.000436	0.0012207	0.000436	0
0.000437	-0.355225	0.000437	0	0.000437	0.0012207	0.000437	0
0.000437	-0.354004	0.000437	0	0.000437	0.000610352	0.000437	0
0.000438	-0.354614	0.000438	0	0.000438	0	0.000438	-0.000610352
0.000438	-0.352783	0.000438	0.000610352	0.000438	0.000610352	0.000438	0
0.000438	-0.350952	0.000438	-0.000610352	0.000438	0.000610352	0.000438	-0.000610352
0.000439	-0.349731	0.000439	0.000610352	0.000439	0.0012207	0.000439	0
0.000439	-0.349121	0.000439	0	0.000439	0.000610352	0.000439	-0.000610352
0.00044	-0.34729	0.00044	-0.000610352	0.00044	0.00183105	0.00044	0
0.00044	-0.34729	0.00044	0.000610352	0.00044	0.000610352	0.00044	0
0.00044	-0.346069	0.00044	0	0.00044	0.000610352	0.00044	0
0.000441	-0.345459	0.000441	-0.000610352	0.000441	0.000610352	0.000441	0.000610352
0.000441	-0.344238	0.000441	0	0.000441	0.000610352	0.000441	-0.000610352
0.000442	-0.343018	0.000442	0.000610352	0.000442	0.0012207	0.000442	0
0.000442	-0.343018	0.000442	0.000610352	0.000442	0.0012207	0.000442	-0.000610352
0.000442	-0.341187	0.000442	0.000610352	0.000442	0.0012207	0.000442	0
0.000443	-0.341187	0.000443	0.000610352	0.000443	0.0012207	0.000443	0.000610352
0.000443	-0.339355	0.000443	-0.000610352	0.000443	0.000610352	0.000443	0
0.000444	-0.338745	0.000444	-0.000610352	0.000444	0.000610352	0.000444	-0.000610352
0.000444	-0.336914	0.000444	0	0.000444	0.0012207	0.000444	0.000610352
0.000444	-0.336304	0.000444	0.000610352	0.000444	0.0012207	0.000444	-0.000610352
0.000445	-0.335693	0.000445	0	0.000445	0	0.000445	0.000610352
0.000445	-0.335693	0.000445	-0.000610352	0.000445	0.0012207	0.000445	0
0.000446	-0.333252	0.000446	-0.000610352	0.000446	0.000610352	0.000446	-0.000610352
0.000446	-0.332642	0.000446	-0.000610352	0.000446	0.000610352	0.000446	0.000610352
0.000446	-0.331421	0.000446	0.000610352	0.000446	0.000610352	0.000446	-0.000610352
0.000447	-0.330811	0.000447	0	0.000447	0.0012207	0.000447	-0.000610352
0.000447	-0.32959	0.000447	-0.000610352	0.000447	0.0012207	0.000447	-0.000610352
0.000448	-0.328369	0.000448	0.000610352	0.000448	0.0012207	0.000448	0
0.000448	-0.327148	0.000448	0	0.000448	0.0012207	0.000448	0.000610352
0.000448	-0.327148	0.000448	0	0.000448	0.0012207	0.000448	-0.000610352
0.000449	-0.325928	0.000449	0	0.000449	0.0012207	0.000449	0
0.000449	-0.326538	0.000449	-0.000610352	0.000449	0.000610352	0.000449	-0.000610352
0.00045	-0.324707	0.00045	0	0.00045	0.0012207	0.00045	-0.000610352
0.00045	-0.322876	0.00045	0.000610352	0.00045	0.0012207	0.00045	0
0.00045	-0.322266	0.00045	0	0.00045	0.000610352	0.00045	-0.000610352
0.000451	-0.321655	0.000451	0	0.000451	0.0012207	0.000451	-0.000610352
0.000451	-0.320435	0.000451	0.000610352	0.000451	0.0012207	0.000451	0
0.000452	-0.319214	0.000452	0.000610352	0.000452	0.000610352	0.000452	0.000610352
0.000452	-0.319824	0.000452	0	0.000452	0.000610352	0.000452	-0.000610352
0.000452	-0.317383	0.000452	0.000610352	0.000452	0.000610352	0.000452	0
0.000453	-0.316772	0.000453	0	0.000453	0.00183105	0.000453	0.000610352
0.000453	-0.316162	0.000453	0.000610352	0.000453	0.000610352	0.000453	-0.000610352
0.000454	-0.314941	0.000454	0	0.000454	0.00183105	0.000454	-0.000610352
0.000454	-0.313721	0.000454	-0.000610352	0.000454	0.000610352	0.000454	-0.000610352
0.000454	-0.313721	0.000454	-0.000610352	0.000454	0.0012207	0.000454	0
0.000455	-0.3125	0.000455	-0.000610352	0.000455	0.0012207	0.000455	-0.000610352
0.000455	-0.310669	0.000455	0	0.000455	0.0012207	0.000455	-0.000610352
0.000456	-0.310669	0.000456	0	0.000456	0.000610352	0.000456	0
0.000456	-0.309448	0.000456	-0.000610352	0.000456	0.0012207	0.000456	0
0.000456	-0.308838	0.000456	0.000610352	0.000456	0.00183105	0.000456	-0.000610352
0.000457	-0.307617	0.000457	-0.000610352	0.000457	0.000610352	0.000457	-0.000610352
0.000457	-0.307007	0.000457	0	0.000457	0.000610352	0.000457	-0.000610352
0.000458	-0.306396	0.000458	0	0.000458	0.000610352	0.000458	-0.000610352
0.000458	-0.305176	0.000458	0	0.000458	0.000610352	0.000458	-0.000610352
0.000458	-0.303955	0.000458	-0.000610352	0.000458	0	0.000458	-0.0012207
0.000459	-0.302124	0.000459	-0.000610352	0.000459	0.000610352	0.000459	-0.000610352
0.000459	-0.302124	0.000459	0	0.000459	0.000610352	0.000459	0
0.00046	-0.300903	0.00046	0.000610352	0.00046	0.000610352	0.00046	-0.000610352
0.00046	-0.300903	0.00046	0	0.00046	0.0012207	0.00046	0
0.00046	-0.299683	0.00046	-0.000610352	0.00046	0.0012207	0.00046	0.000610352
0.000461	-0.299072	0.000461	-0.000610352	0.000461	0.00183105	0.000461	0
0.000461	-0.297852	0.000461	0	0.000461	0.0012207	0.000461	0.000610352
0.000462	-0.297241	0.000462	-0.000610352	0.000462	0.00183105	0.000462	0.000610352
0.000462	-0.296021	0.000462	0	0.000462	0.0012207	0.000462	0
0.000462	-0.29541	0.000462	0	0.000462	0.000610352	0.000462	-0.000610352
0.000463	-0.294189	0.000463	-0.000610352	0.000463	0.0012207	0.000463	-0.000610352
0.000463	-0.293579	0.000463	0	0.000463	0.000610352	0.000463	-0.0012207
0.000464	-0.292969	0.000464	-0.000610352	0.000464	0.0012207	0.000464	0.000610352
0.000464	-0.291748	0.000464	-0.000610352	0.000464	0.0012207	0.000464	-0.000610352
0.000464	-0.290527	0.000464	0	0.000464	0.000610352	0.000464	0.000610352
0.000465	-0.290527	0.000465	0	0.000465	0.00183105	0.000465	0.000610352
0.000465	-0.289307	0.000465	0.000610352	0.000465	0.000610352	0.000465	-0.000610352
0.000466	-0.288086	0.000466	-0.000610352	0.000466	0.000610352	0.000466	0
0.000466	-0.287476	0.000466	0	0.000466	0.0012207	0.000466	0
0.000466	-0.287476	0.000466	-0.000610352	0.000466	0.0012207	0.000466	0.000610352
0.000467	-0.285645	0.000467	-0.000610352	0.000467	0.0012207	0.000467	0
0.000467	-0.285645	0.000467	-0.000610352	0.000467	0.0012207	0.000467	-0.000610352
0.000468	-0.284424	0.000468	0	0.000468	0.000610352	0.000468	0.000610352
0.000468	-0.283813	0.000468	0.000610352	0.000468	0.000610352	0.000468	0.000610352
0.000468	-0.283203	0.000468	-0.000610352	0.000468	0	0.000468	-0.000610352
0.000469	-0.281982	0.000469	0	0.000469	0.0012207	0.000469	0.000610352
0.000469	-0.281372	0.000469	0.000610352	0.000469	0	0.000469	-0.000610352
0.00047	-0.279541	0.00047	0.000610352	0.00047	0.0012207	0.00047	-0.000610352
0.00047	-0.278931	0.00047	0	0.00047	0.000610352	0.00047	0.000610352
0.00047	-0.278931	0.00047	0	0.00047	0.0012207	0.00047	0.000610352
0.000471	-0.2771	0.000471	0	0.000471	0.000610352	0.000471	0
0.000471	-0.276489	0.000471	0	0.000471	0	0.000471	-0.000610352
0.000472	-0.2771	0.000472	-0.000610352	0.000472	0.000610352	0.000472	0
0.000472	-0.275269	0.000472	-0.000610352	0.000472	0	0.000472	-0.000610352
0.000472	-0.273437	0.000472	0.0012207	0.000472	0	0.000472	-0.000610352
0.000473	-0.273437	0.000473	-0.000610352	0.000473	0.000610352	0.000473	-0.000610352
0.000473	-0.272217	0.000473	0	0.000473	0.000610352	0.000473	0
0.000474	-0.272217	0.000474	0	0.000474	0	0.000474	-0.000610352
0.000474	-0.270996	0.000474	0.000610352	0.000474	0.000610352	0.000474	-0.000610352
0.000474	-0.270996	0.000474	0	0.000474	0.000610352	0.000474	-0.000610352
0.000475	-0.269775	0.000475	-0.000610352	0.000475	0.00183105	0.000475	-0.000610352
0.000475	-0.267944	0.000475	-0.000610352	0.000475	0.000610352	0.000475	0
0.000476	-0.268555	0.000476	-0.000610352	0.000476	0	0.000476	-0.000610352
0.000476	-0.267334	0.000476	0	0.000476	-0.000610352	0.000476	-0.000610352
0.000476	-0.267334	0.000476	-0.0012207	0.000476	0.00183105	0.000476	-0.000610352
0.000477	-0.265503	0.000477	-0.000610352	0.000477	0	0.000477	-0.000610352
0.000477	-0.264893	0.000477	0.000610352	0.000477	0.000610352	0.000477	0.000610352
0.000478	-0.263672	0.000478	-0.000610352	0.000478	0.0012207	0.000478	-0.000610352
0.000478	-0.262451	0.000478	-0.000610352	0.000478	0.000610352	0.000478	0.000610352
0.000478	-0.262451	0.000478	0	0.000478	0.00183105	0.000478	0
0.000479	-0.26062	0.000479	0	0.000479	0.000610352	0.000479	0
0.000479	-0.26001	0.000479	-0.000610352	0.000479	0.000610352	0.000479	-0.0012207
0.00048	-0.26062	0.00048	-0.000610352	0.00048	0.000610352	0.00048	0
0.00048	-0.259399	0.00048	0	0.00048	0.000610352	0.00048	0
0.00048	-0.258179	0.00048	-0.000610352	0.00048	0.000610352	0.00048	0
0.000481	-0.257568	0.000481	-0.000610352	0.000481	0.000610352	0.000481	0
0.000481	-0.256348	0.000481	0	0.000481	0.00183105	0.000481	0
0.000482	-0.256348	0.000482	0	0.000482	0.000610352	0.000482	-0.000610352
0.000482	-0.255127	0.000482	0	0.000482	0.000610352	0.000482	0.000610352
0.000482	-0.255127	0.000482	0	0.000482	0.000610352	0.000482	-0.000610352
0.000483	-0.253906	0.000483	-0.000610352	0.000483	0.000610352	0.000483	0
0.000483	-0.253296	0.000483	-0.000610352	0.000483	0.000610352	0.000483	-0.000610352
0.000484	-0.252686	0.000484	0	0.000484	0.000610352	0.000484	-0.0012207
0.000484	-0.251465	0.000484	0.000610352	0.000484	0	0.000484	-0.000610352
0.000484	-0.251465	0.000484	0	0.000484	0	0.000484	0
0.000485	-0.249634	0.000485	0.000610352	0.000485	0.0012207	0.000485	0
0.000485	-0.249023	0.000485	-0.000610352	0.000485	0.000610352	0.000485	0
0.000486	-0.248413	0.000486	0.000610352	0.000486	0	0.000486	0
0.000486	-0.247803	0.000486	0	0.000486	0.0012207	0.000486	-0.000610352
0.000486	-0.246582	0.000486	0	0.000486	0.000610352	0.000486	0
0.000487	-0.245361	0.000487	0	0.000487	0.0012207	0.000487	0
0.000487	-0.244751	0.000487	0	0.000487	0.000610352	0.000487	0
0.000488	-0.244751	0.000488	-0.000610352	0.000488	0.000610352	0.000488	-0.000610352
0.000488	-0.24353	0.000488	0	0.000488	0.000610352	0.000488	0
0.000488	-0.24292	0.000488	0.000610352	0.000488	0.000610352	0.000488	0.000610352
0.000489	-0.241699	0.000489	0	0.000489	0.000610352	0.000489	0
0.000489	-0.241089	0.000489	0.000610352	0.000489	-0.000610352	0.000489	0
0.00049	-0.241699	0.00049	0	0.00049	0.000610352	0.00049	0
0.00049	-0.239868	0.00049	-0.000610352	0.00049	0.000610352	0.00049	-0.000610352
0.00049	-0.239868	0.00049	0	0.00049	0.0012207	0.00049	-0.000610352
0.000491	-0.238037	0.000491	0.000610352	0.000491	0.0012207	0.000491	-0.0012207
0.000491	-0.237427	0.000491	0	0.000491	0	0.000491	-0.000610352
0.000492	-0.236816	0.000492	0	0.000492	0.000610352	0.000492	0
0.000492	-0.236206	0.000492	-0.000610352	0.000492	0	0.000492	-0.000610352
0.000492	-0.234985	0.000492	-0.000610352	0.000492	0.0012207	0.000492	0
0.000493	-0.234985	0.000493	-0.000610352	0.000493	0.0012207	0.000493	-0.000610352
0.000493	-0.233765	0.000493	0	0.000493	0.000610352	0.000493	0
0.000494	-0.232544	0.000494	0	0.000494	0.0012207	0.000494	0
0.000494	-0.232544	0.000494	-0.000610352	0.000494	0.000610352	0.000494	-0.000610352
0.000494	-0.231323	0.000494	-0.000610352	0.000494	0.0012207	0.000494	-0.000610352
0.000495	-0.231934	0.000495	0	0.000495	0	0.000495	0
0.000495	-0.230713	0.000495	-0.000610352	0.000495	0.000610352	0.000495	-0.000610352
0.000496	-0.230103	0.000496	-0.000610352	0.000496	0.0012207	0.000496	0
0.000496	-0.228882	0.000496	0.000610352	0.000496	0.000610352	0.000496	-0.000610352
0.000496	-0.228271	0.000496	0.000610352	0.000496	0.0012207	0.000496	0.000610352
0.000497	-0.227051	0.000497	-0.000610352	0.000497	0.0012207	0.000497	0.000610352
0.000497	-0.22644	0.000497	0	0.000497	0.000610352	0.000497	-0.000610352
0.000498	-0.22522	0.000498	-0.000610352	0.000498	0.000610352	0.000498	0.000610352
0.000498	-0.22522	0.000498	-0.0012207	0.000498	0.00183105	0.000498	0
0.000498	-0.22522	0.000498	-0.000610352	0.000498	0.0012207	0.000498	0
0.000499	-0.223389	0.000499	0	0.000499	0.000610352	0.000499	0
0.000499	-0.223389	0.000499	0.000610352	0.000499	0.000610352	0.000499	-0.000610352
0.0005	-0.222168	0.0005	-0.000610352	0.0005	0.000610352	0.0005	0
0.0005	-0.221558	0.0005	-0.000610352	0.0005	0.0012207	0.0005	0
